[1] "number of individuals" "11433"                
[1] "number of treated individuals" "319"                          
           Coef. Bootstrap Std.Err     t-stat        2.5%     97.5%
[1,] -0.20330520         0.4714431 -0.4312402 -1.14986571 0.7213236
[2,]  0.05774159         0.2931431  0.1969741 -0.46948395 0.6673173
[3,]  1.08648178         0.5627463  1.9306779  0.09685796 2.2636150
[4,]  1.05348139         1.0995150  0.9581328 -0.82743644 3.2612508
