"educ3";"year";"mean_dwage";"mean_hwage";"mean_nbheur_TOT";"mean_age";"n";"sd_dwage";"sd_hwage";"sd_nbheur_TOT";"treatment";"IC_inf_hwage";"IC_sup_hwage";"IC_inf_dwage";"IC_sup_dwage";"IC_inf_nbheur_TOT";"IC_sup_nbheur_TOT"
3;-8;35,3929570215055;7,88266148572353;857,509090909091;21,8181818181818;55;39,5451855736579;5,57891259938621;708,346035774399;1;6,3744701474546;9,39085282399245;24,7023958610761;46,0835181819348;666,01633374175;1049,00184807643
3;-7;35,9604055757654;8,26270597231542;1187,85483870968;22,741935483871;62;18,065120490437;3,72967414028253;781,981045570761;1;7,31554608949772;9,20986585513312;31,372723981278;40,5480871702528;989,268836922305;1386,44084049705
3;-6;43,057152667801;8,25770920991747;1469,57534246575;23,6027397260274;73;33,8035042959237;2,16872026097809;747,763701494296;1;7,7517093349864;8,76370908484854;35,1702115745984;50,9440937610037;1295,10916245992;1644,04152247159
3;-5;48,214374632717;9,14404253222306;1668,75324675325;24,5584415584416;77;27,0936826994367;4,05508937165512;556,611367677195;1;8,2236501437604;10,0644349206857;42,0648629829143;54,3638862825197;1542,41796306681;1795,08853043968
3;-4;49,8543715874192;9,47819586646075;1716,85714285714;25,5324675324675;77;19,2328535036215;3,23084215002361;507,085758196199;1;8,74488464920578;10,2115070837157;45,4890493094725;54,2196938653658;1601,76279366624;1831,95149204805
3;-3;47,5367407523616;9,65994526690871;1648,7375;26,475;80;25,1560301153555;5,13083004888141;545,547773581282;1;8,51813497175949;10,8017555620579;41,9385404812263;53,1349410234968;1527,33179011751;1770,14320988249
3;-2;52,6306841550744;10,288987761971;1682,8313253012;27,5060240963855;83;23,5336077363898;3,41862895572011;384,480194525503;1;9,54250934659164;11,0354661773503;47,4919778377873;57,7693904723615;1598,87773745309;1766,78491314931
3;-1;58,0200490778851;11,9970898375505;1708,3734939759;28,5060240963855;83;24,1315744621152;4,34385458002017;360,462971639264;1;11,0485827823739;12,9455968927272;52,7507730908121;63,2893250649582;1629,6642127531;1787,08277519871
3;0;42,0378136233567;10,7379251252591;1366,775;29,475;80;23,0559247157185;4,2121045864537;473,246074963496;1;9,80056716655868;11,6752830839595;36,9069689152315;47,1686583314818;1261,45924496927;1472,09075503073
3;1;50,335096372344;12,3014465573121;1363;30,4814814814815;81;25,4239358741086;4,9248743036922;509,314269385809;1;11,2124674233061;13,390425691318;44,7134025048571;55,9567902398309;1250,38136695249;1475,61863304751
3;2;54,4879352770865;12,9563315920129;1406,72289156627;31,5060240963855;83;27,3295171340967;5,12219244169895;530,688262570938;1;11,8378697329832;14,0747934510426;48,5203690663083;60,4555014878647;1290,84388321658;1522,60189991595
3;3;57,6921875642959;13,1241649062387;1495,96341463415;32,5121951219512;82;28,5230145728841;4,98451674905242;451,683201696022;1;12,0289464640254;14,2193833484519;51,4249939404251;63,9593811881667;1396,71773096192;1595,20909830638
3;4;60,6187618605887;13,2137437932917;1613,4578313253;33,5060240963855;83;26,8956670110805;4,70270150697134;377,051568615275;1;12,1868803300743;14,2406072565091;54,7459294616796;66,4915942594978;1531,12632910559;1695,78933354501
3;5;61,6011150403331;13,6834524965759;1672,23456790123;34,5185185185185;81;26,3621917957802;4,68671459032496;302,634568068692;1;12,6471347996798;14,719770193472;55,7719557517913;67,4302743288749;1605,31656968783;1739,15256611464
3;6;62,7438268933306;14,6630175710209;1642,30120481928;35,5060240963855;83;30,4659039331994;6,06224917898785;358,468447260645;1;13,3392886085099;15,9867465335319;56,0914115579074;69,3962422287537;1564,02744011987;1720,57496951869
3;7;63,8818462324743;16,9172118918442;1600,11111111111;36,4814814814815;81;31,5586739234554;17,0058675020326;441,044612255949;1;13,1569057960114;20,6775179876769;56,9036503882116;70,8600420767371;1502,58813888979;1697,63408333243
3;8;62,4309180705109;15,7333137063285;1529,7027027027;37,2972972972973;37;29,2838778807115;5,98717724575496;493,308099853815;1;13,737089425923;17,7295379867341;52,6671870750148;72,194649066007;1365,22559333583;1694,17981206958
3;-8;33,9556830517665;7,64284637537634;948,089552238806;21,8059701492537;67;35,6438977920072;4,7181068335654;731,239477652205;0;6,4920096929205;8,79368305783219;25,2614532405796;42,6499128629533;769,726228933964;1126,45287554365
3;-7;34,6469852286399;7,68474020813315;1120,58974358974;22,7435897435897;78;16,4944000909221;2,16032330552313;801,525354832206;0;7,19766256385681;8,17181785240948;30,9280726383356;38,3658978189441;939,873699532214;1301,30578764727
3;-6;37,2015888167844;7,84228502474366;1295,0752688172;23,4623655913978;93;16,7285859428754;1,92206353683764;780,341330508074;0;7,44644073450198;8,23812931498535;33,7563774060318;40,646800227537;1134,36587799788;1455,78465963653
3;-5;40,6798543973311;8,23421445883398;1500,35483870968;24,247311827957;93;16,6154396906401;2,25918913247042;689,59809727433;0;7,76893997569392;8,69948894197403;37,2579451808354;44,1017636138267;1358,33379510948;1642,37588230988
3;-4;42,8108501452311;8,80482228700816;1605,27272727273;25,1515151515152;99;16,791636558151;2,414645142948;591,602766241097;0;8,3232298043632;9,28641476965313;39,4618172816116;46,1598830088505;1487,27963592108;1723,26581862438
3;-3;43,6579073583267;9,23133600297481;1538,10185185185;26,1759259259259;108;18,3644937483711;3,24297324168767;632,537641594492;0;8,61272287336826;9,84994913258136;40,1547896621081;47,1610250545454;1417,4421791075;1658,7615245962
3;-2;41,9327205204562;9,79587215750259;1416,42477876106;27,1769911504425;113;20,0715802862297;3,25475293960349;627,870576479821;0;9,18921295898148;10,4025313560237;38,1915429148283;45,6738981260841;1299,39486350469;1533,45469401744
3;-1;47,9901169120836;10,4668262618747;1541,0396039604;28,1386138613861;101;16,0784600466664;2,72604430088793;494,368909232611;0;9,92867091994896;11,0049816038004;44,8160272022304;51,1642066219369;1443,44497965482;1638,63422826597
3;0;50,5685979493229;11,1595872332452;1578,45833333333;29,1770833333333;96;14,9825418212733;3,02133561063578;454,847896303731;0;10,5474077404943;11,771766725996;47,5328528238963;53,6043430747495;1486,29758380991;1670,61908285676
3;1;52,7569302391766;11,5319850521659;1645,86597938144;30,1649484536082;97;16,6182617128463;3,5995326178904;410,250726915514;0;10,8065186154363;12,2574514888956;49,407608982984;56,1062514953692;1563,18215216957;1728,54980659331
3;2;54,130137087159;11,5940363364348;1626,43362831858;31,1769911504425;113;16,7802101803429;2,99513724096511;496,685368146141;0;11,0357673704696;12,1523053024;51,0024438189065;57,2578303554114;1533,85555774054;1719,01169889663
3;3;56,6735220169362;11,9878929837212;1708,45283018868;32,188679245283;106;16,7666186220506;3,90941527450097;373,572945183222;0;11,2349863416082;12,7407996258342;53,4444717268185;59,9025723070539;1636,5071472686;1780,39851310876
3;4;58,1376457460591;12,348012524236;1718,46902654867;33,1769911504425;113;18,5036407968258;3,60091971375206;357,315288715634;0;11,6768306840101;13,0191943644619;54,6887191750327;61,5865723170855;1651,86839335346;1785,06965974388
3;5;58,6259333070266;12,729603007476;1701,75221238938;34,1769911504425;113;19,0335707236224;3,34847097362275;333,332457673734;0;12,1054755376421;13,3537304773099;55,0782321529124;62,1736344611407;1639,62178179576;1763,882642983
3;6;61,3194199439895;13,4611664402582;1680,73451327434;35,1769911504425;113;22,131597031659;3,9823998531175;381,567561366902;0;12,7188798372765;14,2034530432398;57,1942721474092;65,4445677405698;1609,61345577598;1751,8555707727
3;7;63,5851686425088;13,6776846952974;1726,45871559633;36,1559633027523;109;20,3100298316119;5,00371883545901;319,722435527782;0;12,7276897133388;14,6276796772559;59,7291513365944;67,4411859484232;1665,75692171884;1787,16050947382
3;8;62,821540789101;13,4496680612318;1701,65909090909;36,7272727272727;44;21,9818191555495;3,87783579670278;395,332532573253;0;12,2706982205917;14,6286379018719;56,1384569285532;69,5046246496487;1581,46701539005;1821,85116642814
