"educ3";"year";"mean_dwage";"mean_hwage";"mean_nbheur_TOT";"mean_age";"n";"sd_dwage";"sd_hwage";"sd_nbheur_TOT";"treatment";"IC_inf_hwage";"IC_sup_hwage";"IC_inf_dwage";"IC_sup_dwage";"IC_inf_nbheur_TOT";"IC_sup_nbheur_TOT"
2;-8;30,5997968267859;6,63154666429765;1064;21,2432432432432;74;14,5236782943644;1,36655657340738;758,888931899065;1;6,31494118396302;6,94815214463229;27,2349334672342;33,9646601863375;888,1796940719;1239,8203059281
2;-7;32,406155674322;6,73060686581442;1236,72222222222;22,2666666666667;90;15,6488214423587;1,42270832882734;730,909469298088;1;6,43262637529675;7,02858735633208;29,1285734777934;35,6837378708506;1083,63619765036;1389,80824679408
2;-6;33,3902743823377;6,67739804945007;1381,72916666667;22,9270833333333;96;13,6969906478367;1,50468775087335;668,501395174967;1;6,37251997472198;6,98227612417816;30,6150061342528;36,1655426304226;1246,278194732;1517,18013860134
2;-5;33,3910756516381;6,94646079220371;1530,71568627451;23,8529411764706;102;11,8257172873819;1,49543915186466;658,359878976957;1;6,65272867100643;7,240192913401;31,0682843704476;35,7138669328286;1401,40153563056;1660,02983691846
2;-4;36,2411509583895;7,51685826108468;1457,78846153846;24,8557692307692;104;22,2959774534049;2,96495497234631;621,894298031284;1;6,94024849602625;8,09346802614312;31,9051396391409;40,5771622776381;1336,84553713539;1578,73138594154
2;-3;33,6846160116411;7,55830880186656;1403,73214285714;25,8839285714286;112;13,5318163478661;1,75573789615192;585,973756171292;1;7,22956363271541;7,88705397101771;31,1509125107077;36,2183195125745;1294,01414792585;1513,45013778843
2;-2;37,2029486271339;8,0798428500058;1537,25862068966;26,7844827586207;116;18,4754007591249;2,95188436340616;535,347690688059;1;7,53695186923627;8,62273383077533;33,8050755388203;40,6008217154475;1438,801026465;1635,71621491431
2;-1;41,0473567472355;8,56363528620406;1644,65486725664;27,7610619469027;113;12,5096909910381;1,93221378957042;404,800298425733;1;8,20348651586605;8,92378405654207;38,7156531583005;43,3790603361704;1569,20341851043;1720,10631600285
2;0;31,1169730529534;8,66178850934117;1157,59649122807;28,7631578947368;114;14,2164467597923;2,38073231013404;512,069490570782;1;8,22003281714475;9,10354420153759;28,4790467929482;33,7548993129587;1062,57967169869;1252,61331075745
2;1;37,2489600877605;9,20368914372148;1248,24770642202;29,8715596330275;109;15,4351458669512;2,06947248993475;621,23153010719;1;8,81078367772941;9,59659460971354;34,3184774604214;40,1794427150996;1130,30206326277;1366,19334958127
2;2;42,3247716333594;9,65525991699155;1280,5;30,7844827586207;116;17,2807497168513;2,49177600049296;632,26349075297;1;9,19698901263788;10,1135308213452;39,1466108359666;45,5029324307522;1164,21829504745;1396,78170495255
2;3;43,3806595665694;9,39650364691109;1435,00877192982;31,7719298245614;114;10,4279125902459;1,90595825792256;526,119951591075;1;9,04284443627994;9,75016285754223;41,4457130272802;45,3156061058586;1337,38482554823;1532,63271831142
2;4;49,6979604613676;10,245464920995;1627,15517241379;32,7844827586207;116;31,7196736736766;6,00646664678126;411,656623549463;1;9,14079543961062;11,3501344023794;43,8642885994654;55,5316323232699;1551,44601833258;1702,86432649501
2;5;45,6081281332301;9,9801471211533;1669,68421052632;33,7719298245614;114;11,4937881281602;2,09471157826057;366,481194287218;1;9,59146387471378;10,3688303675928;43,4754035472272;47,7408527192331;1601,68196055887;1737,68646049377
2;6;45,8958498843173;11,511442055145;1634,00862068966;34,7844827586207;116;13,7581342985573;8,92646529703857;413,946257710906;1;9,8697458017313;13,1531383085588;43,3655451354266;48,4261546332079;1557,87837228953;1710,13886908978
2;7;47,6684341956432;12,7943891883811;1581,12173913043;35,7652173913043;115;14,3200878503539;17,9750333501406;498,020417178627;1;9,47388852245837;16,1148898543037;45,0231060720767;50,3137623192096;1489,12318231709;1673,12029594378
2;8;46,263265104002;12,1861962358522;1577,98245614035;36,3508771929825;57;14,1316772603837;10,3986312003631;486,463751814638;1;9,4270679901343;14,9453244815701;42,5136264124084;50,0129037955956;1448,90624867731;1707,05866360339
2;-8;28,3344593749614;6,86013450763349;1004,16544117647;21,3897058823529;272;23,0101879330172;3,52659161134707;715,399265487171;0;6,43915332672598;7,281115688541;25,5876553339783;31,0812634159445;918,765808671216;1089,56507368172
2;-7;27,8288448448322;6,93327121349404;1113,08978328173;22,2198142414861;323;17,1395637699517;4,3103984466574;715,819576308843;0;6,46142586158046;7,40511656540762;25,9526323325181;29,7050573571464;1034,73133357693;1191,44823298654
2;-6;28,4513236072253;6,92015084226143;1158;23,0689655172414;348;15,1127488088589;3,53318042466345;688,007489403643;0;6,5476376192257;7,29266406529715;26,8579436800585;30,0447035343921;1085,46142100148;1230,53857899852
2;-5;29,7344148327875;7,22612324338845;1235,18157181572;23,9024390243902;369;15,5626022638195;4,44425652283131;689,245099087401;0;6,77117215694573;7,68107432983117;28,1412973402603;31,3275323253147;1164,62470700735;1305,73843662409
2;-4;30,4680243498057;7,45361017579433;1288,05684754522;24,8759689922481;387;16,6111006287782;3,03046149958934;658,75985849483;0;7,15073390956134;7,75648644202732;28,8078454836011;32,1282032160102;1222,21779091569;1353,89590417475
2;-3;30,6762196983139;7,75314705984526;1243,86682808717;25,8280871670702;413;14,2831657126107;4,33999961665457;662,530735091318;0;7,33334899853623;8,1729451211543;29,2946423238598;32,0577970727681;1179,78177216189;1307,95188401244
2;-2;31,8213524472675;8,06206198382529;1190,15486725664;26,7278761061947;452;17,8354081977846;3,57631997176708;648,324224202682;0;7,73147763792643;8,39264632972416;30,1727005370777;33,4700043574574;1130,22571067098;1250,08402384229
2;-1;36,8403161198401;8,54054116082908;1372,68523002421;27,728813559322;413;18,1740102963661;2,77294039863041;578,137550149589;0;8,272321090255;8,80876123140315;35,0823864049739;38,5982458347063;1316,76333044814;1428,60712960029
2;0;38,5164748144177;8,78914468971572;1401,35294117647;28,7186700767263;391;14,7379075206434;2,28493228231666;552,523820797818;0;8,56195799142171;9,01633138800973;37,051111234372;39,9818383944633;1346,41649358574;1456,2893887672
2;1;40,2403952217595;9,28561247917518;1412,9675;29,7675;400;15,3433755681738;8,36678322621434;542,184929417971;0;8,46318810300179;10,1080368553486;38,7321971797076;41,7485932638114;1359,67269239101;1466,26230760899
2;2;41,7161014403755;9,0790023461016;1438,83185840708;30,7278761061947;452;16,1923414089408;2,60185945961694;548,578172712902;0;8,83849422200518;9,31951047019801;40,2193297209812;43,2128731597697;1388,12292916351;1489,54078765065
2;3;42,4447297924571;9,17701763203586;1535,88056206089;31,7353629976581;427;15,519399945398;2,47603354648686;501,060295746323;0;8,94149843968466;9,41253682438706;40,968531480806;43,9209281041082;1488,21993309208;1583,5411910297
2;4;42,4656050402034;9,46028276001108;1494,83849557522;32,7278761061947;452;16,809830836277;2,94236277790569;556,277374243943;0;9,18829952528656;9,7322659947356;40,9117544408301;44,0194556395768;1443,41787511773;1546,25911603271
2;5;43,0236947094518;10,6482834566922;1554,1598173516;33,7123287671233;438;18,2452718589235;6,71148774791454;497,089549444119;0;10,0180023068816;11,2785646065029;41,310266724811;44,7371226940925;1507,47774259405;1600,84189210914
2;6;42,4413118180195;12,1634344555144;1497,34734513274;34,7278761061947;452;19,5187546737606;13,0953412679453;550,801509245546;0;10,9529401872269;13,3739287238019;40,6370563829564;44,2455672530826;1446,43289729488;1548,26179297061
2;7;44,9657725425765;12,0841934844941;1577,15990453461;35,7589498806683;419;29,1405820427344;14,0592276117247;488,992921462246;0;10,7341061956732;13,434280773315;42,1674446051349;47,7641004800181;1530,2026216865;1624,11718738271
2;8;43,8448518392786;13,0372749913236;1609,09944751381;36,3204419889503;181;18,7128841334133;17,6823074891667;468,476468103105;0;10,4438270074518;15,6307229751954;41,1002501147604;46,5894535637968;1540,38842931453;1677,81046571309
