"educ3";"year";"mean_dwage";"mean_hwage";"mean_nbheur_TOT";"mean_age";"n";"sd_dwage";"sd_hwage";"sd_nbheur_TOT";"treatment";"IC_inf_hwage";"IC_sup_hwage";"IC_inf_dwage";"IC_sup_dwage";"IC_inf_nbheur_TOT";"IC_sup_nbheur_TOT"
2;-8;37,1094690973417;6,92491731486469;1482,30769230769;21,9230769230769;13;11,6367770203822;2,00296741851408;652,694592262898;1;5,71453621764889;8,13529841208049;30,0774351222534;44,1415030724299;1087,88829764971;1876,72708696567
2;-7;37,4377484748;6,7090541342561;1406,125;22,25;16;18,321057533158;1,36206368587789;701,372357120904;1;5,98326162818413;7,43484664032808;27,675146036494;47,2003509131061;1032,39005203662;1779,85994796338
2;-6;36,3391086457647;7,61618201284998;1461,26315789474;23;19;12,594415227045;3,19445292684049;673,278037507146;1;6,07650498719722;9,15585903850274;30,2687948171643;42,409422474365;1136,75353137423;1785,77278441524
2;-5;37,6410967277808;7,29963317948595;1525,45;23,9;20;14,4622178631793;1,83041581407882;640,715757242592;1;6,44297220875821;8,15629415021368;30,8725704190294;44,4096230365322;1225,58579519022;1825,31420480978
2;-4;40,9051689488881;8,14463409280713;1639,1;24,9;20;15,118828052889;1,5950286666399;467,969848331459;1;7,3981376981669;8,89113048744736;33,8293396119504;47,9809982858257;1420,08336921073;1858,11663078927
2;-3;40,4624555572967;8,39343904769974;1775,80952380952;25,8095238095238;21;10,748780282434;1,97460831478524;351,079423926783;1;7,49460811909269;9,29226997630679;35,5696694334298;45,3552416811635;1616,00008602882;1935,61896159023
2;-2;42,8642569372944;8,67236935869057;1777,19047619048;26,8095238095238;21;11,736212161424;2,59963671875384;353,970707693111;1;7,48902891164468;9,85570980573646;37,5219972109499;48,2065166636388;1616,06494181831;1938,31601056264
2;-1;44,938539329224;9,33404971799016;1780,7;27,9;20;14,1037820366693;2,37281041838494;385,368600037337;1;8,22354025848273;10,4445591774976;38,3377661510563;51,5393125073917;1600,34194340065;1961,05805659935
2;0;44,7178828207838;9,55894819985386;1684,65;28,7;20;12,4362857558386;2,20289417032229;367,281374282357;1;8,52796199232457;10,5899344073831;38,8975219246966;50,5382437168711;1512,75702562615;1856,54297437385
2;1;45,8088205593478;9,50330324707237;1719,33333333333;29,8095238095238;21;12,3345510569821;2,28846632433388;252,122060386102;1;8,46160586537634;10,5450006287684;40,1942002331368;51,4234408855587;1604,56874738363;1834,09791928303
2;2;46,5882960001409;9,61384454983347;1710,80952380952;30,8095238095238;21;15,3205873781345;2,34708987357151;404,094125055985;1;8,54546204845829;10,6822270512086;39,6144482366203;53,5621437636614;1526,86808339873;1894,75096422032
2;3;50,655324072721;10,1216598963701;1749,8;31,9;20;11,7435167479149;2,51405857259563;228,537132765403;1;8,94504426581186;11,2982755269284;45,1591890526633;56,1514590927788;1642,84132946389;1856,75867053611
2;4;50,4151122227719;10,0716042585294;1779,2380952381;32,8095238095238;21;13,7735844679602;2,8881760527682;228,402693671048;1;8,75692228132292;11,386286235736;44,1454517413054;56,6847727042385;1675,27043557035;1883,20575490584
2;5;50,3986037162241;10,4841527509598;1795,95;33,7;20;13,948301401625;3,07291230603065;198,409060436155;1;9,04598552207241;11,9223199798472;43,8705977151764;56,9266097172718;1703,09170135164;1888,80829864836
2;6;47,635687877186;10,7301759983956;1708,47619047619;34,8095238095238;21;17,6602488047015;2,86007236410023;420,029953580411;1;9,42828666689692;12,0320653298944;39,5968390008265;55,6745367535455;1517,28084788972;1899,67153306266
2;7;46,3097787286344;13,8979237054065;1620,3;35,7;20;23,2849850113808;10,9335010754104;615,713287684762;1;8,78088768950674;19,0149597213063;35,4120702900363;57,2074871672325;1332,13731113936;1908,46268886064
2;8;42,5623617570069;10,9821046167796;1553;35,6;5;19,7309306823432;1,67437326322698;598,091130180009;1;8,90309561627571;13,0611136172835;18,0631754776874;67,0615480363265;810,371776010483;2295,62822398952
2;-8;56,773091509943;7,81481431319231;1308,62096774194;21,9274193548387;124;243,225424988863;4,71159447104008;692,199306238297;0;6,97728673868591;8,65234188769871;13,5376217552121;100,008561264674;1185,57642101956;1431,66551446431
2;-7;37,8750944975002;7,39444512057973;1527,53284671533;22,8540145985401;137;13,9259878927928;2,02938081621592;626,356317159421;0;7,05157226322656;7,73731797793289;35,5222372998202;40,2279516951802;1421,70717887143;1633,35851455923
2;-6;40,439663460476;7,95086945652875;1587,22695035461;23,8014184397163;141;14,1044433637219;4,25026897638666;615,539999498632;0;7,24320834758351;8,65853056547398;38,0913024303201;42,7880244906318;1484,74079687458;1689,71310383464
2;-5;43,426746796587;8,44148292831685;1748,47916666667;24,7847222222222;144;13,9923007808177;4,22919712542604;518,263263941936;0;7,74483118153878;9,13813467509491;41,1218741478762;45,7316194452978;1663,10858747436;1833,84974585897
2;-4;45,4527409832334;8,50325625193376;1784,42857142857;25,7823129251701;147;13,4870107756716;2,08845271279726;467,752730016999;0;8,16282542312132;8,8436870807462;43,2542740376187;47,6512079288481;1708,18195661023;1860,67518624691
2;-3;46,9711890026382;9,11350811766008;1802,6644295302;26,8187919463087;149;15,6389456774148;3,73312890530235;438,294585168874;0;8,50915089900137;9,71786533631878;44,4393959807223;49,5029820245541;1731,70880405753;1873,62005500287
2;-2;48,2705069930882;9,78607568795528;1784,77631578947;27,7960526315789;152;15,8244661525798;3,68227659739949;417,843615940657;0;9,1959597308799;10,3761916450307;45,7345025018907;50,8065114842857;1717,81334361547;1851,73928796348
2;-1;50,6344210026213;10,2813137800581;1764,8322147651;28,8322147651007;149;16,0943034000937;3,67180498288405;381,431556729003;0;9,68688430730104;10,8757432528151;48,0289099994211;53,2399320058215;1703,08215989666;1826,58226963355
2;0;51,1603775073;10,1930173676124;1777,71830985915;29,7394366197183;142;16,7094418348772;2,67992319463539;366,766634332425;0;9,74841702374652;10,6376177114782;48,3882743364092;53,9324806781908;1716,87157661354;1838,56504310477
2;1;53,9491458997981;10,4673186699268;1722,45833333333;30,7638888888889;144;18,1652712111433;2,84220060876887;470,691588705727;0;9,99913902256806;10,9354983172855;50,9568834101026;56,9414083894935;1644,92396741452;1799,99269925215
2;2;55,7772483197594;10,8548364334706;1672,625;31,7960526315789;152;20,5157672974037;3,36801730124932;527,142902731946;0;10,3150831855541;11,394589681387;52,4894231568172;59,0650734827016;1588,145893031;1757,104106969
2;3;56,6298731392956;10,9531400467163;1760,6301369863;32,7876712328767;146;17,0758447005863;2,94732692447181;439,548467590732;0;10,4710370656627;11,4352430277699;53,8367267238749;59,4230195547162;1688,73189428253;1832,52837969007
2;4;58,3761613869009;11,385866211945;1767,25;33,7960526315789;152;20,2066032492586;3,30034626304326;411,56585577813;0;10,8569578200357;11,9147746038543;55,1378823765463;61,6144403972556;1701,29309196827;1833,20690803173
2;5;58,4508631062808;11,9281441416095;1803,28476821192;34,7880794701987;151;23,5070089316503;3,76311523911712;340,719109678015;0;11,3230468941616;12,5332413890574;54,6710090501475;62,2307171624142;1748,49819317538;1858,07134324847
2;6;59,6583779868988;12,951118545733;1745,97368421053;35,7960526315789;152;25,3839205975509;5,15272491253022;412,544309438287;0;12,1253508140392;13,7768862774269;55,5903900990991;63,7263658746985;1679,85997070728;1812,08739771377
2;7;60,7742852769124;13,8657020729673;1737,39189189189;36,8243243243243;148;23,2671872702872;11,3239715318516;405,246471321892;0;12,026175244593;15,7052289013416;56,9946382613653;64,5539322924595;1671,56147594605;1803,22230783773
2;8;60,9053296319401;12,9322200160691;1761,72;37,16;50;24,3751594179374;4,72492061322303;337,934122308488;0;11,5894124353242;14,275027596814;53,9779859731552;67,8326732907251;1665,68018507522;1857,75981492478
