"cohort";"age";"m_cumulkids";"sd_cumulkids";"n"
1;34;1,27258960121151;1,09286058130698;1981
1;35;1,34938524590164;1,13237598787075;1952
1;36;1,29798398232532;1,14229042990943;3621
1;37;1,34539473684211;1,1712208718117;3648
1;38;1,25658731600945;1,1763526912751;5503
1;39;1,16112035496395;1,17879896960992;3606
1;40;1,19644369178662;1,18330842379911;7086
1;41;0,982014388489209;1,11798211612315;3614
1;42;1,13134430727023;1,19323602395561;8748
1;43;1,08016405667412;1,19007718021895;5364
1;44;1,16074788334901;1,22199344561246;8504
1;45;1,26446117274168;1,26324520794552;5048
1;46;1,19857142857143;1,25063540736322;8400
1;47;1,4374245472837;1,28719868929725;4970
1;48;1,11179079369934;1,22974758654552;6539
1;49;1,35100438000302;1,28636034363103;6621
2;24;0,455411844792376;0,70666339472546;2938
2;25;0,575757575757576;0,789792237061574;2937
2;26;0,718886279771889;0,851777442818792;5962
2;27;0,85461525621766;0,911837372388171;5991
2;28;1,01096831376025;0,982388639488348;9026
2;29;1,1483913328956;1,02263451696513;6092
2;30;1,24902419984387;1,07047190080354;11529
2;31;1,36658612357611;1,10343461043242;5794
2;32;1,44514035617265;1,13096512322411;13252
2;33;1,49452036260317;1,15658543188839;7391
2;34;1,60247965904688;1,18082690912524;12905
2;35;1,66400649262816;1,21238826233973;7393
2;36;1,73845310787537;1,22537345762672;12774
2;37;1,81935014548982;1,2430396351165;8248
2;38;1,8325;1,25626492833196;10000
2;39;1,88435248475891;1,27216457571584;10826
2;40;1,88723298559364;1,2901350602296;10065
2;41;1,91787031346036;1,29762936913662;13016
2;42;1,93697435364967;1,3036709664843;9631
2;43;1,96245682534915;1,31028442194893;13318
2;44;1,98246129727611;1,32002481574416;10206
2;45;1,97784506314157;1,31583227951344;13541
2;46;1,99285059578368;1,30546150856365;10910
2;47;1,98869720404521;1,32321380366519;13448
2;48;1,9948322406479;1,32612691740217;12965
2;49;1,99993818384126;1,33012255451369;16177
3;15;NA;NA;23
3;16;0,0125523012552301;0,128826245191716;956
3;17;0,0217557251908397;0,172309873491128;2620
3;18;0,0324038012151425;0,212297236809928;6419
3;19;0,0431782334384858;0,24466057802101;5072
3;20;0,0732160312805474;0,305737681074162;10230
3;21;0,122837672549362;0,396737198644324;5723
3;22;0,179487179487179;0,476426638081911;14430
3;23;0,265858208955224;0,568753256084683;8576
3;24;0,344496630590157;0,655370158325602;14691
3;25;0,44281914893617;0,735304864683013;9024
3;26;0,590124123043713;0,837767767217981;14824
3;27;0,661645171778476;0,902321128690733;9227
3;28;0,867797196746842;0,990217537044047;11558
3;29;0,938377211195083;1,0299612889344;12041
3;30;1,1003367003367;1,08236437497842;11880
3;31;1,19125282918386;1,12264757108088;15022
3;32;1,28980164999122;1,15075660225543;11394
3;33;1,38123415046492;1,17811094042334;15379
3;34;1,45908599017731;1,19909295154363;12013
3;35;1,54507512520868;1,22302282755115;15574
3;36;1,57845722762486;1,23744194469738;12134
3;37;1,6642363532619;1,24512225394461;15773
3;38;1,71086700666928;1,26177068134597;15294
3;39;1,71664948453608;1,26900059262089;19400
3;40;1,74211233539371;1,28259805959541;18605
3;41;1,76426303854875;1,28441361004306;22050
3;42;1,78481644506966;1,29090538806508;22037
3;43;1,81397099611697;1,30044286132291;25238
3;44;1,83073425597256;1,30953677839184;25073
3;45;1,83965253302004;1,31425963014068;28089
3;46;1,8487771641684;1,31690561200773;27886
3;47;1,87546825629499;1,32257292357694;30699
3;48;1,89514826776277;1,32643852212281;27248
3;49;1,91694659052738;1,33518921018791;23816
4;15;NA;NA;11
4;16;0,0180722891566265;0,15904354538772;1328
4;17;0,0160237388724036;0,155209151377374;1685
4;18;0,029853584331622;0,206546061762267;5259
4;19;0,0307325287678922;0,208004580313897;7126
4;20;0,0546067660176221;0,272105265289128;9193
4;21;0,0691809695874736;0,307919838412065;13284
4;22;0,0943675459214764;0,358439162394146;11487
4;23;0,142284696603486;0,442531557472158;15722
4;24;0,176978753210367;0,495743896416704;12849
4;25;0,251284746554543;0,585289590229733;17124
4;26;0,288635176479367;0,622917973168919;13401
4;27;0,411972432647947;0,735271705802992;17557
4;28;0,51449997070713;0,813801057863208;17069
4;29;0,608562121917171;0,869042031904483;21490
4;30;0,715477740799691;0,922383435274057;20733
4;31;0,823538792759748;0,976396667550811;25082
4;32;0,936284104981425;1,0216060966715;25033
4;33;1,03242374480277;1,05806131080146;28621
4;34;1,12667785234899;1,08982268187446;28608
4;35;1,21261951477779;1,11762228050122;32109
4;36;1,2897919840801;1,1430236521134;32161
4;37;1,3664366268305;1,15948829026173;35646
4;38;1,42810970252291;1,17681362345191;31868
4;39;1,48039950062422;1,19587617985304;28035
4;40;1,53368830636904;1,21576644070276;24415
4;41;1,57180550320392;1,2259382457693;21224
4;42;1,60997616615594;1,23413526275409;17622
4;43;1,63944420813838;1,24622686810123;14106
4;44;1,65770101925255;1,24579449592658;10596
4;45;1,67360815979601;1,25135195804046;7059
4;46;1,6956025128498;1,25424298776198;3502
5;15;0;0;83
5;16;0,000892857142857143;0,0298807152333602;1120
5;17;0,00119688809096349;0,0345805344602216;3342
5;18;0,00536446828652572;0,088664461812069;6338
5;19;0,00638404705544796;0,0898076295005209;13941
5;20;0,0123090245561947;0,122993736095478;16167
5;21;0,0227715425285224;0,166792194176367;21562
5;22;0,038961038961039;0,21842585717557;22407
5;23;0,0614428329252213;0,277821078517989;26545
5;24;0,0962386129885395;0,352251214504001;27224
5;25;0,142737600978404;0,429217697656337;31071
5;26;0,203791771727682;0,510402153876973;31331
5;27;0,280511697591333;0,593491900888802;34708
5;28;0,366779596618434;0,668013717234139;31583
5;29;0,472523150631056;0,747400482641144;27969
5;30;0,588189809539313;0,816477291031889;24572
5;31;0,70883476599809;0,882076206966412;20940
5;32;0,837335488339875;0,940767593429403;17324
5;33;0,961339836465356;0,990745577945842;13942
5;34;1,06897541375682;1,02192145129171;10453
5;35;1,16751918158568;1,05278445399178;7038
5;36;1,25268240343348;1,07910530172197;3728
5;40;NA;NA;2
5;41;NA;NA;1
5;42;NA;NA;1
6;15;0;0;545
6;16;0;0;4440
6;17;0,000883652430044183;0,0297146139206393;10185
6;18;0,00163859212164908;0,0404476744438847;15257
6;19;0,00470779955638043;0,0691114100618225;22091
6;20;0,0118011573335763;0,11334525819543;21947
6;21;0,025305799039271;0,16713844068417;20193
6;22;0,041733181299886;0,218251962967386;17540
6;23;0,068429344475649;0,282212196992459;14599
6;24;0,107487815684537;0,358298749065094;11285
6;25;0,151649831649832;0,43351670188575;7425
6;26;0,216725881388357;0,514188084815452;3659
6;27;NA;NA;2
6;28;NA;NA;3
6;29;NA;NA;1
6;30;NA;NA;2
6;35;NA;NA;1
6;39;NA;NA;1
6;44;NA;NA;1
