"educ3";"year";"mean_dwage";"mean_hwage";"mean_nbheur_TOT";"mean_age";"n";"sd_dwage";"sd_hwage";"sd_nbheur_TOT";"treatment";"IC_inf_hwage";"IC_sup_hwage";"IC_inf_dwage";"IC_sup_dwage";"IC_inf_nbheur_TOT";"IC_sup_nbheur_TOT"
3;-8;34,5159237636442;7,74368386886843;812,754716981132;21,7735849056604;53;40,2478590837874;5,66458470080958;683,608437902542;1;6,18233095459199;9,30503678314487;23,4222398674748;45,6096076598136;624,328895298114;1001,18053866415
3;-7;35,4207350032902;8,03178072582223;1213,46551724138;22,7586206896552;58;17,8549886408961;3,62976299961874;778,57661885113;1;7,07738319702078;8,98617825462368;30,7260050615724;40,1154649450079;1008,74923105626;1418,1818034265
3;-6;43,3175498006872;8,00370895583701;1501,83582089552;23,6268656716418;67;34,923861856864;1,81483297838628;711,562740201366;1;7,56103640989146;8,44638150178257;34,7989505540636;51,8361490473107;1328,27203097309;1675,39961081795
3;-5;47,9993829936642;9,06615079276122;1627,28378378378;24,5405405405405;74;27,389416623747;4,07104832276439;582,51207337174;1;8,12296539174959;10,0093361937729;41,6537698116026;54,3449961757259;1492,32668183905;1762,24088572852
3;-4;48,5980753372118;9,18617348700593;1697,08219178082;25,5205479452055;73;19,7286351009382;3,23627401721841;523,669922370122;1;8,43109489184555;9,9412520821663;43,9950441979476;53,2011064764761;1574,90095891636;1819,26342464529
3;-3;46,1035939030804;9,48698475494781;1647,65333333333;26,4533333333333;75;24,2398098001525;4,86321404353092;514,971856836209;1;8,36806082202793;10,6059086878677;40,5265201670611;51,6806676390997;1529,16906958584;1766,13759708083
3;-2;49,7574696875486;10,0723730299228;1678,12658227848;27,493670886076;79;19,6947466569246;3,31639232197871;385,273375040493;1;9,32954162646271;10,8152044333829;45,3460868113436;54,1688525637536;1591,83004854197;1764,42311601499
3;-1;56,1180879225698;11,42979054338;1747,85897435897;28,5;78;20,4386687899016;3,77350531706857;307,396555268829;1;10,5789965553677;12,2805845313924;51,5098801506693;60,7262956944703;1678,55176019515;1817,1661885228
3;0;43,4430060150088;10,8166724592938;1380,30379746835;29,493670886076;79;22,7984191275356;4,19417177354319;469,47836176429;1;9,87722917200654;11,7561157465811;38,3364383857981;48,5495736442195;1275,14637442998;1485,46122050673
3;1;50,7638642714774;12,2815513644696;1417,92405063291;30,493670886076;79;24,312454691686;4,54754948885197;459,955593512999;1;11,2629557819383;13,3001469470009;45,3181711547444;56,2095573882103;1314,89961145717;1520,94848980865
3;2;54,4423333183259;12,5277309226609;1482,96202531646;31,493670886076;79;27,3672415678338;4,64520541091356;461,854384950938;1;11,4872616054811;13,5682002398406;48,3124052250969;60,5722614115548;1379,51228003342;1586,41177059949
3;3;57,5459631834805;12,8365222527711;1543,71794871795;32,5;78;27,2424570135173;4,7614804050105;404,079293280509;1;11,7629743014015;13,9100702041407;51,4037381968227;63,6881881701383;1452,61214535568;1634,82375208022
3;4;61,2873133003314;12,9973104007956;1660,11392405063;33,4936708860759;79;26,0758455613181;4,59327495082768;300,920425095294;1;11,9684728728623;14,0261479287289;55,4466421510368;67,127984449626;1592,71142157168;1727,51642652959
3;5;62,2086277273263;13,4915116033805;1701,21794871795;34,5;78;25,2885003849518;4,61921611635867;254,226335778829;1;12,4500392929133;14,5329839138477;56,5069518886717;67,9103035659808;1643,89876671053;1758,53713072537
3;6;63,2367051388878;14,0846113024744;1678,62025316456;35,4936708860759;79;30,1090856671918;5,03593784780386;322,328280810405;1;12,9566226883318;15,2125999166171;56,4926374316883;69,9807728460873;1606,42265228891;1750,8178540402
3;7;64,8122568210737;14,6839061277224;1646,20779220779;36,4675324675325;77;30,880523262302;6,10534933210183;378,240710661399;1;13,2981618101124;16,0696504453325;57,8032377940118;71,8212758481355;1560,35768159547;1732,05790282012
3;8;64,4758849627628;15,299506466334;1613,44117647059;37,3529411764706;34;29,1210583534328;5,07662190877678;433,630983404405;1;13,5281893436695;17,0708235889986;54,3150673524598;74,6367025730658;1462,14017363361;1764,74217930756
3;-8;35,6822670384992;7,87088838902027;900;21,728813559322;59;38,354172139705;4,96800293499674;735,658747724411;0;6,57621977281451;9,16555700522603;25,6871153408157;45,6774187361827;708,286286184199;1091,7137138158
3;-7;35,0011737170694;7,77631113644809;1025,07352941176;22,6911764705882;68;18,145238636588;2,11787231046332;783,995608352314;0;7,26367682528969;8,28894544760649;30,6090902740232;39,3932571601156;835,306163998231;1214,8408948253
3;-6;36,4811731761742;7,8839102713523;1203,5625;23,375;80;17,5145655402395;1,87379642546296;773,686978272286;0;7,46691730350417;8,30090323920044;32,5834975450605;40,378848807288;1031,38689710573;1375,73810289427
3;-5;40,3307823429221;8,22264931430278;1437,74074074074;24,1481481481481;81;17,2630909547141;2,30684710416907;700,003121024788;0;7,71256353203238;8,73273509657318;36,5135994710593;44,1479652147848;1282,95734008348;1592,52414139801
3;-4;42,5141061849983;8,79812647005255;1584,16091954023;25,0459770114943;87;17,6301030304261;2,52466144795847;608,822746449649;0;8,26004810709511;9,33620483300999;38,7566214002349;46,2715909697617;1454,4031862783;1713,91865280216
3;-3;43,6491254323676;9,09727443645901;1562,15625;26,0833333333333;96;17,9752214596595;2,62962111595648;613,513013255799;0;8,56446367712917;9,63008519578885;40,0070070538195;47,2912438109157;1437,8469597878;1686,4655402122
3;-2;42,0823956448298;9,79841781894136;1432,22;27,07;100;19,5996982946747;3,14451353585605;606,868740571492;0;9,17447811270751;10,4223575251752;38,1933902846025;45,9714010050571;1311,80407575701;1552,63592424299
3;-1;48,5818960220562;10,6219414757526;1528,05617977528;28,0337078651685;89;15,9719735512332;2,80969601712352;494,125567394991;0;10,0300725351721;11,213810416333;45,2173629881855;51,9464290559269;1423,96749035642;1632,14486919414
3;0;50,9765010577459;11,357109012299;1565,01149425287;29,0919540229885;87;15,1340640427775;3,19443154205683;474,46232713077;0;10,6762832738145;12,0379347507834;47,7509943619409;54,2020077535509;1463,88985179505;1666,1331367107
3;1;52,9188216525268;11,5290607409692;1640,43181818182;30,0568181818182;88;16,74470157421;3,23414179324682;421,096401321422;0;10,8438115710392;12,2143099108991;49,3709583898796;56,4666849151739;1551,21001595023;1729,65362041341
3;2;54,5208786584896;11,7312936826373;1609,51;31,07;100;17,4462802085331;3,04075230817007;522,047764659383;0;11,1279424550926;12,3346449101819;51,0591581652998;57,9825991516794;1505,92439758251;1713,09560241749
3;3;57,5867394257176;12,1978695756387;1703,67021276596;32,0744680851064;94;17,5542184700744;4,06633294385851;392,282797604902;0;11,3650040012656;13,0307351500119;53,9912875897258;61,1821912617095;1623,32292147065;1784,01750406127
3;4;58,9750487101408;12,4206017465943;1730,29;33,07;100;19,05189938994;3,64331171854532;369,307604808914;0;11,6976896594092;13,1435138337794;55,194738537197;62,7553588830846;1657,01135901884;1803,56864098116
3;5;58,8177688036067;12,8039127438179;1701,38;34,07;100;19,5627161181471;3,38470628135791;348,982468373876;0;12,1323135858567;13,475511901779;54,9361015095367;62,6994360976767;1632,13430704461;1770,62569295539
3;6;61,3325307830652;13,5886053390116;1668,43;35,07;100;22,9213861876672;4,08057784237715;400,312460157782;0;12,7789301663004;14,3982805117229;56,7844304803224;65,8806310858079;1588,99932306237;1747,86067693763
3;7;63,5536347048871;13,8136916032013;1713,11458333333;36,0416666666667;96;20,7681489441178;5,17520052229704;333,605435705799;0;12,7650985175901;14,8622846888126;59,345616621352;67,7616527884222;1645,51983957485;1780,70932709181
3;8;63,4494448788717;13,7413751711314;1680,30769230769;36,6153846153846;39;23,1513386074793;4,00340153279417;412,888041014699;0;12,4436225215928;15,0391278206699;55,9446490765751;70,9542406811684;1546,46487269533;1814,15051192005
