"educ3";"year";"mean_dwage";"mean_hwage";"mean_nbheur_TOT";"mean_age";"n";"sd_dwage";"sd_hwage";"sd_nbheur_TOT";"treatment";"IC_inf_hwage";"IC_sup_hwage";"IC_inf_dwage";"IC_sup_dwage";"IC_inf_nbheur_TOT";"IC_sup_nbheur_TOT"
2;-8;45,0168319537312;9,21512597624161;712,377777777778;20,7777777777778;45;136,187061244712;15,9695791587473;638,131622533132;1;4,41733325289774;14,0129186995855;4,1017092095247;85,9319546979377;520,661814276756;904,0937412788
2;-7;27,5620516834633;6,40032529319047;1118,04166666667;21,7708333333333;48;14,5644972946091;2,2154576980308;656,767323620692;1;5,75702343563139;7,04362715074955;23,3329625104386;31,7911408564879;927,336315061519;1308,74701827181
2;-6;27,4851623814157;6,18365071506363;1183,94736842105;22,2982456140351;57;14,0428223249309;1,48796433281153;715,434518842836;1;5,78884063475828;6,57846079536899;23,7591000776616;31,2112246851699;994,117038749206;1373,7776980929
2;-5;28,6871123865362;6,5587754897267;1266,734375;23,1875;64;11,9257382043013;1,60972512502427;690,814891297009;1;6,15667811727041;6,96087286218298;25,7081516173933;31,6660731556792;1094,17394941802;1439,29480058198
2;-4;32,7183606616431;7,04153750493363;1436,1935483871;24,2741935483871;62;9,8927724460734;1,46970190169052;604,414601995381;1;6,66830310733645;7,41477190253082;30,2060668691202;35,230654454166;1282,70097984976;1589,68611692443
2;-3;30,7050203263977;7,23325832595935;1319,64179104478;25,1194029850746;67;13,7539110248843;1,79623822827338;556,034163477676;1;6,79512139594746;7,67139525597125;27,3501778243025;34,0598628284928;1184,01440179696;1455,26918029259
2;-2;30,7815824093532;7,6265521556671;1289,45205479452;26,0821917808219;73;13,0776633694732;2,30671339436006;582,783217774268;1;7,08835610057901;8,16474821075518;27,7303377890076;33,8328270296989;1153,47866965507;1425,42543993397
2;-1;36,1917354706906;8,21133757338916;1386,78873239437;27,0422535211268;71;14,0389439557356;1,89985704116533;527,930106723904;1;7,76164874848573;8,66102639829258;32,8687716510195;39,5146992903617;1261,82971485787;1511,74774993086
2;0;27,7853653165277;8,77241020310761;621,380952380952;27,968253968254;63;16,7136332718989;2,81930236863475;457,291691641385;1;8,06237809625553;9,4824423099597;23,5760912857517;31,9946393473037;506,21353122232;736,548373539585
2;1;33,7270558257141;8,32397922422967;496,302325581395;28,8604651162791;43;14,9489281793404;2,31027709383021;583,867709041294;1;7,61298088025425;9,03497756820508;29,1264547947368;38,3276568566913;316,614367224488;675,990283938303
2;2;36,3004147170694;9,14565639625588;858,469387755102;30,0408163265306;49;17,4742844643323;2,15929585021452;616,506593031819;1;8,52543421219372;9,76587858031803;31,2812141872694;41,3196152468693;681,38801857592;1035,55075693428
2;3;34,4532184502491;8,60303789240756;1082,52173913043;31,0724637681159;69;14,7334384230916;1,86760825928807;646,650387601497;1;8,15438940187847;9,05168638293665;30,9138600885855;37,9925768119128;927,179354636989;1237,86412362388
2;4;41,1104046738444;8,85622426628773;1465,52054794521;32,0821917808219;73;14,5571228891134;1,89147903683084;539,928187344006;1;8,41490955489222;9,29753897768324;37,7139766080478;44,5068327396409;1339,5459812002;1591,49511469021
2;5;41,5032525828571;9,44220651425976;1532,44117647059;33,0441176470588;68;15,3436002006824;2,31292479442323;484,007166048866;1;8,88235944373881;10,0020535847807;37,7893101129988;45,2171950527154;1415,28648355669;1649,59586938449
2;6;38,6551710589056;12,1803916824151;1400,97260273973;34,0821917808219;73;14,1617800598882;11,8329375788895;568,106552324932;1;9,41956307638503;14,9412202884451;35,3509832998661;41,959358817945;1268,423537009;1533,52166847045
2;7;38,528568926229;11,7772138017622;1377,54411764706;35,0147058823529;68;18,6996854962866;7,65029921063877;552,746424651378;1;9,92544689087441;13,62898071265;34,0022807520518;43,0548571004062;1243,75097948358;1511,33725581054
2;8;38,7335492225372;9,36106815218245;1526,75757575758;35,8181818181818;33;16,0291977727777;3,00837965485085;573,441966892849;1;8,2943431104692;10,4277931938957;33,0498428342077;44,4172556108667;1323,42389575892;1730,09125575623
2;-8;26,5390381453098;6,84222177244175;931,885931558935;21,2319391634981;263;16,9383202113437;3,47744827657452;707,694883411934;0;6,4199989623227;7,26444458256079;24,4824309467191;28,5956453439004;845,959442186275;1017,8124209316
2;-7;27,0290334603417;6,88294601773688;1031,51923076923;22,0320512820513;312;17,488932664369;4,38095883151493;710,236358205104;0;6,39493081264338;7,37096122283039;25,0808606083915;28,9772063122918;952,402727888405;1110,63573365006
2;-6;28,4066801084453;6,90234793626175;1087,77976190476;22,8720238095238;336;15,8070412657223;3,58434411429007;699,384406721594;0;6,5177030099435;7,28699286257999;26,7103869989966;30,102973217894;1012,7270730407;1162,83245076883
2;-5;29,0184871990883;7,19528817832364;1172,48441926346;23,7025495750708;353;15,8229879716304;4,5139477359865;702,42757262579;0;6,72277591590794;7,66780044073935;27,3621641129688;30,6748102852079;1098,95551265283;1246,01332587408
2;-4;29,730803176236;7,36814655481793;1264,6307277628;24,6280323450135;371;16,7281365415563;2,94080047117778;666,23326085093;0;7,06791963548832;7,66837347414755;28,0230243081289;31,438582044343;1196,61483840867;1332,64661711693
2;-3;30,1154866056682;7,68286118398499;1210,1012345679;25,6296296296296;405;14,2591595988875;4,29331709914112;668,500766177317;0;7,2634726479793;8,10224971999067;28,7225943662282;31,5083788451083;1144,79938260316;1275,40308653264
2;-2;31,7060895308246;7,99189932580296;1172,796875;26,5446428571429;448;17,8583590156141;3,52315456820212;660,171048467032;0;7,66477090202529;8,31902774958062;30,0479230431094;33,3642560185398;1111,49933317263;1234,09441682737
2;-1;36,1809629064412;8,46796538751715;1338,03422982885;27,5476772616137;409;18,190849856264;2,74730207754198;596,512210648615;0;8,20092123785227;8,73500953718204;34,412770005028;37,9491558078545;1280,05185600853;1396,01660364917
2;0;38,2066148977013;8,74650851828048;1350,73107049608;28,5770234986945;383;15,7057798258229;2,41316049957488;591,932785248454;0;8,50406360401463;8,98895343254633;36,6286898305452;39,7845399648573;1291,26088880034;1410,20125219183
2;1;40,4017508206479;9,34062162749923;1398,08152173913;29,6304347826087;368;16,4606329562039;8,75505908211618;569,364111947443;0;8,4431559521915;10,238087302807;38,7144003489409;42,089101292355;1339,7170101542;1456,44603332406
2;2;41,3007327094234;9,00301762250438;1436,33333333333;30,5914786967419;399;15,4876026863211;2,43811869249199;562,234747434539;0;8,76305744816048;9,24297779684828;39,7764394696304;42,8250259492165;1380,99806666562;1491,66860000105
2;3;42,1943039844795;9,15360317388333;1486,2784503632;31,5738498789346;413;15,6499157688624;2,49055150431223;538,272296780252;0;8,91269792377953;9,39450842398714;40,6805240582771;43,708083910682;1434,21262395677;1538,34427676963
2;4;42,1242595994236;9,38357641173873;1450,69419642857;32,5446428571429;448;17,4169989517746;2,96645676161515;584,897622172137;0;9,10813793583701;9,65901488764044;40,5070738348664;43,7414453639809;1396,385867484;1505,00252537314
2;5;42,3681393364521;10,744484663089;1530,78935185185;33,5162037037037;432;18,736833073608;7,01703462377706;511,013073763175;0;10,0809232724045;11,4080460537736;40,5963027020398;44,1399759708643;1482,46572740581;1579,11297629789
2;6;42,8590009783489;12,7429715761305;1477,00446428571;34,5446428571429;448;28,8503638134495;13,962332626592;570,100144252454;0;11,4465550335184;14,0393881187425;40,1802158563773;45,5377861003204;1424,07009595912;1529,93883261231
2;7;44,6525435078322;12,0570895993841;1568,53268765133;35,5665859564165;413;29,6485054876556;14,0899357727287;499,894267482568;0;10,6942029072605;13,4199762915078;41,7847125806898;47,5203744349746;1520,1790786917;1616,88629661097
2;8;44,6680737417621;14,1579661689766;1594,53846153846;36,1978021978022;182;21,5216786584891;21,3810248665939;490,2373606563;0;11,0307746728585;17,2851576650946;41,5203102036275;47,8158372798966;1522,83628098869;1666,24064208824
