"an";"1";"2";"3";"4";"5";"6"
1976;9201;13954;8262;0;0;0
1977;9161;13990;9676;0;0;0
1978;9111;13825;11012;0;0;0
1979;9098;13780;12680;0;0;0
1980;8864;13630;13717;436;0;0
1981;0;0;0;0;0;0
1982;8424;12899;13968;2140;0;0
1983;0;0;0;0;0;0
1984;6564;12496;13941;3820;0;0
1985;6395;12261;13836;4752;0;0
1986;4886;12366;14184;6143;0;0
1987;4917;12547;14468;7608;0;0
1988;3332;12847;14837;9482;0;0
1989;3416;13184;15359;11715;0;0
1990;0;0;0;0;0;0
1991;1836;13298;15402;14907;530;0
1992;0;13497;15616;16105;1460;0
1993;0;13706;15929;16151;2400;0
1994;0;9488;12989;14092;3333;0
1995;0;11512;15946;17374;5619;0
1996;0;8710;15787;17431;6798;0
1997;0;8675;15670;17418;8795;0
1998;0;5661;15809;17661;10851;0
1999;0;5667;15853;17891;13244;31
2000;0;2790;15890;17999;14932;464
2001;0;2790;15824;17908;16558;1097
2002;0;2762;31456;36113;33234;3383
2003;0;0;29416;33885;31785;5835
2004;0;0;27314;34699;32727;8708
2005;0;0;24833;35402;34232;12520
2006;0;0;22119;35720;34694;16289
2007;0;0;19272;36045;35382;20621
2008;0;0;16318;36548;36090;24246
2009;0;0;12964;35978;35464;26422
2010;0;0;9671;35582;35264;29561
