"cohort";"educ5";"sex";"n";"n_cc";"n_pp";"n_cp";"n_pc";"n_no"
2;1;"F";247;84;36;30;33;7
2;2;"F";905;431;81;107;97;20
2;3;"F";1171;587;82;160;77;29
2;4;"F";453;219;44;56;30;10
2;5;"F";204;63;41;35;17;6
3;1;"F";2454;752;470;483;402;37
3;2;"F";2816;1185;390;446;423;30
3;3;"F";6451;2930;870;1040;858;75
3;4;"F";2018;1011;236;320;191;26
3;5;"F";1151;420;231;168;107;26
4;1;"F";3886;976;981;491;577;141
4;2;"F";1123;329;277;144;178;21
4;3;"F";8268;2990;1790;1029;1284;174
4;4;"F";3587;1748;432;405;389;86
4;5;"F";3170;1197;456;307;291;120
5;1;"F";7235;1440;1011;585;781;920
5;2;"F";813;158;184;83;130;50
5;3;"F";8205;1990;1599;767;1424;597
5;4;"F";4670;1821;456;446;619;403
5;5;"F";3305;930;290;214;250;368
6;1;"F";3460;215;295;139;181;743
6;2;"F";211;19;34;19;12;36
6;3;"F";1652;139;198;80;116;361
6;4;"F";369;50;15;6;33;106
