"an";"cohort";"m_cumulkids";"sd_cumulkids";"n";"nb"
1976;1;0,596109309865679;0,794878008569384;4318;NA
1976;2;0,846774193548387;0,871935375793862;8556;NA
1976;3;0,186170212765957;0,45149302128141;6768;NA
1977;1;0,6239982190561;0,821110493846745;4492;NA
1977;2;0,960177507882751;0,916855358264403;8563;NA
1977;3;0,222908266129032;0,499107619184868;7936;NA
1978;1;0,634380453752182;0,836545482317725;4584;NA
1978;2;1,05586134207753;0,948445865400744;8539;NA
1978;3;0,265887748416685;0,550354391825864;9158;NA
1979;1;0,657221985513421;0,847084240160224;4694;NA
1979;2;1,13662306777646;0,964096835604459;8410;NA
1979;3;0,300173010380623;0,588064150595672;10404;NA
1980;1;0,674398987768874;0,862550438060113;4742;NA
1980;2;1,22657191038304;0,987746772148451;8302;NA
1980;3;0,349060802991187;0,636492108086753;11233;NA
1980;4;0,0078740157480315;0,0887356509416114;127;NA
1981;NA;NA;NA;NA;0
1982;1;0,709117833721176;0,885181173056575;4727;NA
1982;2;1,34678531144254;1,02006966489455;7979;NA
1982;3;0,489833159541189;0,74681389118394;11508;NA
1982;4;0,0281368821292776;0,182905135814078;1315;NA
1983;NA;NA;NA;NA;0
1984;1;0,826509186351706;0,940933797726199;3810;NA
1984;2;1,43806990881459;1,05502303973175;7896;NA
1984;3;0,680694842406877;0,863234601724529;11168;NA
1984;4;0,0518823157228725;0,240970676968554;3161;NA
1985;1;0,816445623342175;0,929881919964214;3770;NA
1985;2;1,47359154929577;1,05385447756594;7952;NA
1985;3;0,775458109216884;0,906554528200326;10969;NA
1985;4;0,072646404744255;0,286731610675985;4047;NA
1986;1;0,913875598086124;0,967911956637013;2926;NA
1986;2;1,51674522451005;1,06873555300607;8062;NA
1986;3;0,88283378746594;0,95177836645173;11010;NA
1986;4;0,103806228373702;0,341891724517624;5202;NA
1987;1;0,923842195540309;0,975522837731382;2915;NA
1987;2;1,54409028897433;1,08060618974697;8063;NA
1987;3;0,98125344605771;0,981595910014549;10882;NA
1987;4;0,126826235623251;0,382362141230931;6434;NA
1988;1;1,07889908256881;1,04432058667146;2180;NA
1988;2;1,61214183774289;1,09690230941978;9109;NA
1988;3;1,11213833247732;1,01757094489572;11682;NA
1988;4;0,167544519688989;0,450783634434571;7974;NA
1989;1;1,09258446687143;1,05873694306648;2279;NA
1989;2;1,65305692939072;1,11452819142273;9503;NA
1989;3;1,22593450215018;1,04004458640916;12092;NA
1989;4;0,209798739581216;0,501798676069147;9838;NA
1990;NA;NA;NA;NA;0
1991;1;1,25117739403454;1,09688670113232;1274;NA
1991;2;1,71187468418393;1,15511862694238;9895;NA
1991;3;1,41031481330839;1,09030771553354;12293;NA
1991;4;0,29603168439854;0,604524158189109;12877;NA
1991;5;0,0122448979591837;0,14262275854365;245;NA
1992;2;1,73666699285644;1,1678629975267;10219;NA
1992;3;1,47722168752005;1,10019908796002;12468;NA
1992;4;0,35284139100933;0,665236927245106;14148;NA
1992;5;0,0202774813233725;0,162165921727466;937;NA
1993;2;1,73770184003004;1,17580284942811;10652;NA
1993;3;1,52667854100519;1,10532181314408;12913;NA
1993;4;0,412845313478533;0,708315690400515;14371;NA
1993;5;0,0175348117586385;0,146164969636773;1939;NA
1994;2;1,79604835564799;1,17661606317265;7693;NA
1994;3;1,60034952170714;1,13168134430835;10872;NA
1994;4;0,477916194790487;0,756626531740183;12362;NA
1994;5;0,0173347778981582;0,141175815166388;2769;NA
1995;2;1,80224403927069;1,17806677093747;9269;NA
1995;3;1,64715719063545;1,12819852092497;13156;NA
1995;4;0,571457246085909;0,824685373917669;14946;NA
1995;5;0,0332608695652174;0,201057806525383;4600;NA
1996;2;1,83738105382758;1,18793660075751;7041;NA
1996;3;1,69115166385524;1,1492408186137;13042;NA
1996;4;0,660178316204996;0,87615469035916;14693;NA
1996;5;0,0475618131868132;0,235820765798676;5824;NA
1997;2;1,86379877090182;1,1847130097521;6997;NA
1997;3;1,73714285714286;1,14441885507356;12950;NA
1997;4;0,749877562443154;0,918632434850376;14293;NA
1997;5;0,0616728427739545;0,270122764273203;7556;NA
1998;2;1,88084656084656;1,18859922730463;4725;NA
1998;3;1,77577554744526;1,15493414019094;13152;NA
1998;4;0,858121669319676;0,962012033548855;14449;NA
1998;5;0,0823174020929982;0,317486320803948;9269;NA
1999;2;1,90066917607696;1,19556261931659;4782;NA
1999;3;1,81025490340116;1,15932155926468;13613;NA
1999;4;0,978600149935255;1,00263014419291;14673;NA
1999;5;0,106308205939202;0,35907004220976;11382;NA
2000;2;1,91166803615448;1,21336722373546;2434;NA
2000;3;1,84648711098274;1,18243546943017;13849;NA
2000;4;1,0876316500135;1,03318295850392;14812;NA
2000;5;0,14139654650106;0,420901015381477;13204;NA
2000;6;0;0;168;NA
2001;2;1,9159109645507;1,20699778128552;2426;NA
2001;3;1,86715079026057;1,18487271239575;14046;NA
2001;4;1,19986572675394;1,06047815652567;14895;NA
2001;5;0,184304963098382;0,476586269775449;14769;NA
2001;6;0,0033167495854063;0,0575433752451137;603;NA
2002;2;1,87485148514851;1,2176809343531;2525;NA
2002;3;1,85669129137662;1,19857177424561;28156;NA
2002;4;1,21917944302791;1,06277330323349;30199;NA
2002;5;0,211100758684946;0,51378704905132;30052;NA
2002;6;0,00778883600173085;0,0879290370902747;2311;NA
2003;3;1,86763032096517;1,20805246462553;26358;NA
2003;4;1,30134948464563;1,07879097853544;28233;NA
2003;5;0,270776827317616;0,577554841620065;28758;NA
2003;6;0,0110756123535676;0,104667457009318;4695;NA
2004;3;1,86540789155168;1,21008806369483;24786;NA
2004;4;1,37678756476684;1,08472162191372;28950;NA
2004;5;0,343609615582456;0,645099487543788;29161;NA
2004;6;0,0203616878767582;0,147734328662351;7465;NA
2005;3;1,87353772559252;1,20414045532486;22995;NA
2005;4;1,45356443204834;1,09218340288754;30117;NA
2005;5;0,431574771915906;0,716853683300582;30252;NA
2005;6;0,0312358533272974;0,188933133560797;11045;NA
2006;3;1,87592979726773;1,20959337946762;20569;NA
2006;4;1,51422063130491;1,09834493638174;30730;NA
2006;5;0,532600516897308;0,786992324587347;30567;NA
2006;6;0,0427999156651908;0,220685741426389;14229;NA
2007;3;1,8776942632917;1,21187991434955;18094;NA
2007;4;1,56518708614517;1,10563974638598;31563;NA
2007;5;0,641581428159169;0,847311894414848;31187;NA
2007;6;0,0612111649164808;0,266794925027301;18379;NA
2008;3;1,88202538202538;1,215684858291;15444;NA
2008;4;1,61122065438413;1,11993029898868;32458;NA
2008;5;0,760768098236381;0,905537579186484;31923;NA
2008;6;0,0864426734287267;0,320472422781919;22084;NA
2009;3;1,89084293511219;1,21574631582083;13192;NA
2009;4;1,67412993720289;1,13375012773218;34078;NA
2009;5;0,894295249680297;0,957238675961334;32061;NA
2009;6;0,11935718323508;0,38101420154496;24766;NA
2010;3;1,88277195481836;1,21707412142885;9827;NA
2010;4;1,70676779804961;1,1416522336429;34147;NA
2010;5;1,01620392010221;0,991198002236342;32091;NA
2010;6;0,153225806451613;0,436285884464463;28024;NA
