"an";"tfr";"pop";"real_tfr"
1976;1,50336926992985;23184;2,01
1977;1,61964175776651;23809;1,94
1978;1,54251507384493;25124;1,89
1979;1,59997657800788;25528;1,87
1980;1,58518191136894;26394;1,85
1982;1,48241326098001;26515;1,86
1984;1,51585916043875;26966;1,86
1985;1,47930245039602;26759;1,86
1986;1,48491016266184;28065;1,85
1987;1,43141729273051;28317;1,83
1988;1,49747707932203;32022;1,81
1989;1,49456816193791;33735;1,79
1991;1,4022052314422;36613;1,75
1992;1,35036794294973;39105;1,74
1993;1,26831180461947;39913;1,73
1994;1,30004908807152;34885;1,73
1995;1,26979829636514;42008;1,74
1996;1,45829274485608;42674;1,75
1997;1,34029354363705;41832;1,77
1998;1,40233311357454;43896;1,78
1999;1,42701948141433;44510;1,81
2000;1,48414335267885;46837;1,89
2001;1,57262035603742;46781;1,9
2002;1,51138586604363;95739;1,88
2003;1,49562149844209;90442;1,89
2004;1,54161812839711;92946;1,92
2005;1,55559637012568;97046;1,94
2006;1,59086916017586;98850;2
2007;1,59954409133108;102153;1,98
2008;1,66572533578174;104944;2,01
2009;1,72101600216376;107353;2
2010;1,75171488681663;107718;2,03
