"cohort";"age";"educ5";"sex";"mnbheur";"sdnbheur";"n"
2;41;1;"F";1245,28244274809;776,646214623732;131
2;41;2;"F";1339,70967741935;798,616079186667;341
2;41;3;"F";1481,85318559557;704,029334179803;361
2;41;4;"F";1383,65753424658;823,901730574609;73
2;41;5;"F";1241,94736842105;877,870055869824;38
2;42;1;"F";1449,68619246862;763,269530310878;239
2;42;2;"F";1534;787,531724762013;755
2;42;3;"F";1654,56790123457;705,624180947254;729
2;42;4;"F";1841,76888888889;662,13305195562;225
2;42;5;"F";1469,78651685393;763,686059247428;89
2;43;1;"F";1376,04714640199;759,286536845853;403
2;43;2;"F";1472,39024390244;709,315284660947;1230
2;43;3;"F";1555,31403647898;687,751905735274;1261
2;43;4;"F";1610,6814159292;732,324433375467;339
2;43;5;"F";1433,88888888889;809,395372291483;144
2;44;1;"F";1402,96197718631;761,670251411229;526
2;44;2;"F";1543,72117794486;720,046602864911;1596
2;44;3;"F";1631,53697949037;670,072089038582;1609
2;44;4;"F";1716,94893617021;681,49430503273;470
2;44;5;"F";1552,22826086957;828,04863249461;184
2;45;1;"F";1351,2023633678;785,17622421424;677
2;45;2;"F";1516,85902255639;694,555222483333;2128
2;45;3;"F";1568,90545625588;686,111442155923;2126
2;45;4;"F";1632,60387323944;695,415957733705;568
2;45;5;"F";1519,35526315789;820,099763523176;228
2;46;1;"F";1312,46899224806;740,78477386131;774
2;46;2;"F";1560,96401739818;707,443412474432;2529
2;46;3;"F";1604,94960760017;680,855433573459;2421
2;46;4;"F";1660,3362701909;667,978101519061;681
2;46;5;"F";1501,62835249042;771,609663551042;261
2;47;1;"F";1318,36013590034;756,106208178612;883
2;47;2;"F";1520,11367275056;696,009324900109;3123
2;47;3;"F";1589,8946998947;670,97355804338;2849
2;47;4;"F";1615,70442708333;698,7098726842;768
2;47;5;"F";1412,97427652733;808,448940662766;311
2;48;1;"F";1362,78012684989;719,965259498724;946
2;48;2;"F";1544,31947291362;690,391518117034;3415
2;48;3;"F";1586,58588761175;678,516562049037;3132
2;48;4;"F";1651,22248803828;679,559334688256;836
2;48;5;"F";1398,95906432749;809,98430060978;342
2;49;1;"F";1343,65549493375;720,281581557311;1283
2;49;2;"F";1514,17416576964;684,593495523297;4645
2;49;3;"F";1549,35644686155;666,04102633055;4413
2;49;4;"F";1580,46463815789;672,49881330196;1216
2;49;5;"F";1420,07740585774;809,489970823418;478
3;31;1;"F";1266,03265306122;793,674247033893;245
3;31;2;"F";1342,27777777778;786,698945295845;108
3;31;3;"F";1437,37547169811;744,255439564678;530
3;31;4;"F";1545,02290076336;730,229726399627;131
3;31;5;"F";1485,4693877551;878,991610671313;98
3;32;1;"F";1366,67387033399;788,895757041013;509
3;32;2;"F";1391,04184100418;780,394980745691;239
3;32;3;"F";1531,53392330383;767,70463754719;1017
3;32;4;"F";1632,45454545455;712,064163757413;330
3;32;5;"F";1536,49576271186;793,383154452628;236
3;33;1;"F";1290,75953757225;765,206846871998;865
3;33;2;"F";1353,59810874704;718,450609895332;423
3;33;3;"F";1506,61224489796;684,422937073851;1715
3;33;4;"F";1586,09355509356;679,972825422122;481
3;33;5;"F";1442,59888579387;774,16754758295;359
3;34;1;"F";1328,72093023256;770,881328298279;1118
3;34;2;"F";1452,04725897921;714,123853714591;529
3;34;3;"F";1545,44908030507;682,326748342662;2229
3;34;4;"F";1647,17164179104;641,873592625998;670
3;34;5;"F";1499,09251101322;750,124304804892;454
3;35;1;"F";1331,84335560505;751,397988787739;1347
3;35;2;"F";1396,25214198286;721,349616815482;817
3;35;3;"F";1510,61992363763;677,657376867068;2881
3;35;4;"F";1558,43525179856;668,367480387739;834
3;35;5;"F";1472,20715630885;762,023484524957;531
3;36;1;"F";1338,00796812749;754,264351688998;1506
3;36;2;"F";1464,35207373272;757,902044311178;1085
3;36;3;"F";1539,28876201923;691,442787360952;3328
3;36;4;"F";1615,51881188119;650,923719756851;1010
3;36;5;"F";1512,01800327332;737,247882776857;611
3;37;1;"F";1298,40973401245;758,523013964507;1767
3;37;2;"F";1409,9775357386;724,903041650912;1469
3;37;3;"F";1516,61830525522;670,694957490256;3977
3;37;4;"F";1565,34893617021;651,686128436639;1175
3;37;5;"F";1503,83308714919;732,037702874822;677
3;38;1;"F";1320,52969247084;736,261760710823;1886
3;38;2;"F";1482,96374790853;716,016467570667;1793
3;38;3;"F";1528,21795156632;677,72577495777;4501
3;38;4;"F";1571,45755395683;665,620250211405;1390
3;38;5;"F";1463,08556149733;731,72478067282;748
3;39;1;"F";1266,15042608373;718,713348484275;2699
3;39;2;"F";1448,9477254589;685,189477750481;2506
3;39;3;"F";1520,46956521739;643,093680027494;6440
3;39;4;"F";1520,02608695652;647,888398968283;1955
3;39;5;"F";1431,85456273764;719,242796642067;1052
3;40;1;"F";1250,99929577465;708,150430384002;2840
3;40;2;"F";1464,55262255742;691,187610681258;2917
3;40;3;"F";1522,11233157586;640,328204812716;6828
3;40;4;"F";1519,56128726929;653,305266304867;2113
3;40;5;"F";1409,32415059688;747,965510528467;1089
3;41;1;"F";1237,42800788955;740,831969481369;3549
3;41;2;"F";1460,94750733138;664,290963280916;3410
3;41;3;"F";1497,53876016014;627,441368380684;8243
3;41;4;"F";1497,73528217621;647,07731261324;2463
3;41;5;"F";1416,35353535354;729,243092833856;1287
3;42;1;"F";1261,41738167728;685,930622254229;3613
3;42;2;"F";1463,83367556468;655,47477611921;3409
3;42;3;"F";1495,38141486811;614,182804850663;8340
3;42;4;"F";1499,996;638,404262505315;2500
3;42;5;"F";1416,17881811205;719,274873449339;1303
3;43;1;"F";1265,64464023495;697,643140534119;4086
3;43;2;"F";1442,01344743276;652,512829737075;4090
3;43;3;"F";1497,49349039058;606,992435360342;9678
3;43;4;"F";1487,0656424581;638,307877470206;2864
3;43;5;"F";1415,22748498999;715,011603922204;1499
3;44;1;"F";1269,24255420538;675,695624521198;4197
3;44;2;"F";1437,66254545455;640,952608943559;4125
3;44;3;"F";1500,68495265541;593,926744239906;9716
3;44;4;"F";1488,60432658758;630,153185981996;2866
3;44;5;"F";1415,39666666667;720,175537763084;1500
3;45;1;"F";1287,21437795954;672,306082337996;4646
3;45;2;"F";1440,01163757273;624,524045146187;4812
3;45;3;"F";1504,69119912988;584,42168076925;11033
3;45;4;"F";1504,55156537753;602,184872072186;3258
3;45;5;"F";1425,15463297232;708,350057024613;1662
3;46;1;"F";1311,03073727934;736,491430233516;4815
3;46;2;"F";1432,91322901849;654,715378170057;4921
3;46;3;"F";1521,16163155536;644,168035464744;11155
3;46;4;"F";1511,31752386819;621,569983586445;3247
3;46;5;"F";1457,9969715324;718,115547799111;1651
3;47;1;"F";1329,56054576464;768,173219482397;5277
3;47;2;"F";1446,56494522692;669,158124874625;5751
3;47;3;"F";1536,99513263568;669,981636532866;12327
3;47;4;"F";1525,65302642796;601,273486348133;3519
3;47;5;"F";1453,78420148827;726,81998510417;1747
3;48;1;"F";1358,53208206024;782,764642846902;4582
3;48;2;"F";1433,07730263158;663,329732622029;5472
3;48;3;"F";1543,11917960089;671,223905695422;10824
3;48;4;"F";1517,67297817715;636,857429979666;3116
3;48;5;"F";1462,52628077179;712,130879325483;1503
3;49;1;"F";1378,14326872708;852,908922287474;3818
3;49;2;"F";1447,65865572489;652,191630083742;5118
3;49;3;"F";1548,49047619048;668,803417598911;9450
3;49;4;"F";1540,40932452276;622,315905138933;2724
3;49;5;"F";1457,25223033252;696,492274966462;1233
4;21;1;"F";752,03137254902;741,217645119897;255
4;21;2;"F";925,506024096386;752,503729404809;83
4;21;3;"F";860,889583333333;835,563961597491;480
4;21;4;"F";588,440594059406;737,935279379485;202
4;21;5;"F";313,083333333333;557,848394581651;168
4;22;1;"F";839,290836653386;749,6402138195;502
4;22;2;"F";861,786163522013;748,602718358625;159
4;22;3;"F";959,447422680412;740,180855244962;970
4;22;4;"F";803,76245210728;763,332491386963;522
4;22;5;"F";356,427536231884;426,661138588703;414
4;23;1;"F";919,412442396313;746,661406060741;868
4;23;2;"F";1094,964;770,790051777836;250
4;23;3;"F";1152,76744186047;747,895578474871;1806
4;23;4;"F";1046,08577878104;789,956229553947;886
4;23;5;"F";519,267884322679;582,293071237777;657
4;24;1;"F";997,1826171875;751,192538281941;1024
4;24;2;"F";1221,53311258278;766,206332144407;302
4;24;3;"F";1260,09166666667;731,847527840658;2160
4;24;4;"F";1288,95016611296;770,648645085992;1204
4;24;5;"F";745,742630385487;729,061885812976;882
4;25;1;"F";1066,96579330422;754,648063327899;1374
4;25;2;"F";1189,24082568807;750,686707404799;436
4;25;3;"F";1314,89470198675;729,245751117843;3020
4;25;4;"F";1479,25819397993;717,563082010733;1495
4;25;5;"F";996,603669724771;799,026343207702;1090
4;26;1;"F";1124,50445859873;773,406040049107;1570
4;26;2;"F";1225,95463917526;741,730210082961;485
4;26;3;"F";1370,91028571429;724,12642047456;3500
4;26;4;"F";1593,4275862069;687,750855013293;1740
4;26;5;"F";1200,23926380368;794,946328306812;1304
4;27;1;"F";1145,29485776805;764,296970309392;1828
4;27;2;"F";1252,37005163511;737,880437748483;581
4;27;3;"F";1402,22503483511;702,963064561244;4306
4;27;4;"F";1591,8717693837;662,235740871461;2012
4;27;5;"F";1315,73133333333;793,929897581058;1500
4;28;1;"F";1179,582;762,29768080001;2000
4;28;2;"F";1272,93720565149;741,591071147291;637
4;28;3;"F";1408,68634840871;708,892965454722;4776
4;28;4;"F";1637,41828621908;641,046813220488;2264
4;28;5;"F";1410,78054862843;770,534502996215;1604
4;29;1;"F";1182,96089765386;735,24626965522;2941
4;29;2;"F";1290,26086956522;684,546532977914;920
4;29;3;"F";1404,58528072838;683,746302703793;6590
4;29;4;"F";1597,84090187361;595,613261550982;3149
4;29;5;"F";1459,39506707053;712,362291789465;2311
4;30;1;"F";1211,64362714014;749,347545240214;3154
4;30;2;"F";1291,46812749004;709,930558425766;1004
4;30;3;"F";1397,40473811902;697,174160788692;7007
4;30;4;"F";1581,48353658537;610,23936906802;3280
4;30;5;"F";1454,05976916735;701,207407684149;2426
4;31;1;"F";1185,11981082501;730,808175281415;3806
4;31;2;"F";1266,13563605729;712,383116156127;1187
4;31;3;"F";1375,6864557412;675,824930097649;8439
4;31;4;"F";1546,04974489796;611,551579464423;3920
4;31;5;"F";1444,66390328152;688,030731998806;2895
4;32;1;"F";1183,63840785733;730,4976904006;3869
4;32;2;"F";1260,88532883643;706,944705913536;1186
4;32;3;"F";1372,75562165378;669,349668400009;8405
4;32;4;"F";1515,30924109448;603,07375110484;3874
4;32;5;"F";1440,85634197617;672,763632636235;2854
4;33;1;"F";1172,31909152237;716,706900638998;4447
4;33;2;"F";1266,44387001477;698,293700258871;1354
4;33;3;"F";1367,02721019624;652,424275974376;9886
4;33;4;"F";1503,04192439863;595,319066436979;4365
4;33;5;"F";1421,0434647625;688,875674563008;3221
4;34;1;"F";1182,69407391209;706,502592781232;4573
4;34;2;"F";1256,70495333812;690,263398072258;1393
4;34;3;"F";1373,57797797798;643,51767261667;9990
4;34;4;"F";1489,50285714286;583,987874150331;4375
4;34;5;"F";1430,18724727838;669,994883669627;3215
4;35;1;"F";1175,25377643505;706,631605343508;5296
4;35;2;"F";1287,44083969466;677,366207213489;1572
4;35;3;"F";1376,99209347272;635,37592142444;11383
4;35;4;"F";1492,91004745203;572,035621374646;4847
4;35;5;"F";1431,12230419977;665,054761667573;3524
4;36;1;"F";1193,99392153251;711,3839295415;5429
4;36;2;"F";1283,2388337469;697,209049533717;1612
4;36;3;"F";1391,12165197857;649,607629362511;11574
4;36;4;"F";1487,02438520355;578,19477213755;4839
4;36;5;"F";1442,42245835727;683,986595347652;3482
4;37;1;"F";1213,04314477469;742,492010855079;6258
4;37;2;"F";1324,70783460283;726,676199871405;1838
4;37;3;"F";1409,49082949657;663,038222439281;13249
4;37;4;"F";1494,31646768998;589,163988837392;5277
4;37;5;"F";1449,39359698682;661,535231105224;3717
4;38;1;"F";1233,61199446941;753,374623321232;5786
4;38;2;"F";1343,76627218935;705,652765281557;1690
4;38;3;"F";1420,35313719116;657,602498578465;12304
4;38;4;"F";1498,7759810263;603,441503462425;4638
4;38;5;"F";1448,89369708373;653,635742685839;3189
4;39;1;"F";1247,96245403522;770,872626328914;5167
4;39;2;"F";1351,47158719791;654,778460520901;1531
4;39;3;"F";1443,00818286934;686,318986364896;11243
4;39;4;"F";1501,20588975585;559,80717385439;3973
4;39;5;"F";1433,68227424749;675,915588135227;2691
4;40;1;"F";1279,43007067895;800,636692924451;4669
4;40;2;"F";1355,99858256556;751,956189306456;1411
4;40;3;"F";1472,22629331745;712,36845049659;10071
4;40;4;"F";1519,04687036488;568,142708018781;3371
4;40;5;"F";1452,80017961383;656,245368641484;2227
4;41;1;"F";1291,5310880829;830,131329584193;4246
4;41;2;"F";1397,15870570108;729,529466391562;1298
4;41;3;"F";1497,44608879493;721,515250491304;8987
4;41;4;"F";1515,25316455696;554,748529480508;2844
4;41;5;"F";1459,78602860286;664,248723302487;1818
4;42;1;"F";1326,43689588511;788,382643801321;3621
4;42;2;"F";1403,68238434164;688,399312310062;1124
4;42;3;"F";1504,44469259065;724,41184164848;7612
4;42;4;"F";1527,71718480138;582,333462601695;2316
4;42;5;"F";1460,75210084034;641,918163001623;1428
4;43;1;"F";1353,12389380531;849,49033587591;2938
4;43;2;"F";1442,73867228662;774,837792464698;949
4;43;3;"F";1532,87011105746;776,763200656206;6213
4;43;4;"F";1546,6076581576;579,52353038799;1802
4;43;5;"F";1450,66159355416;676,507763853518;1117
4;44;1;"F";1413,45291283399;924,978912919772;2283
4;44;2;"F";1454,66756393001;824,843052038597;743
4;44;3;"F";1555,76637876554;817,216773784551;4747
4;44;4;"F";1531,18319454958;621,312741278447;1321
4;44;5;"F";1447,98671497585;683,515474362288;828
4;45;1;"F";1435,45078979344;993,561202100065;1646
4;45;2;"F";1534,18363636364;979,404531231768;550
4;45;3;"F";1584,6529793146;868,798025578529;3239
4;45;4;"F";1553,9281575898;683,274286954508;863
4;45;5;"F";1452,41143911439;672,825291527312;542
4;46;1;"F";1465,76385542169;917,969306363457;830
4;46;2;"F";1597,24113475177;959,747441575917;282
4;46;3;"F";1614,30207677785;816,309106470559;1589
4;46;4;"F";1561,44964871194;633,966294159364;427
4;46;5;"F";1430,13846153846;716,562673948668;260
5;15;1;"F";225,857142857143;374,091088983877;7
5;15;3;"F";646,785714285714;350,176917609333;14
5;16;1;"F";549,976;437,060331407831;125
5;16;2;"F";444,363636363636;255,803546780443;11
5;16;3;"F";774,006622516556;548,94495773485;151
5;16;4;"F";338,875;437,649460184746;16
5;16;5;"F";91,5714285714286;118,86246554016;7
5;17;1;"F";586,379690949227;703,629806210907;453
5;17;2;"F";512,137254901961;607,473753164953;51
5;17;3;"F";851,980158730159;804,881935455777;504
5;17;4;"F";187,953488372093;364,52179419723;129
5;17;5;"F";128,571428571429;104,733314306602;84
5;18;1;"F";404,263406940063;576,612406578928;1268
5;18;2;"F";455,027397260274;551,259397545425;146
5;18;3;"F";662,617917304747;755,8006945725;1306
5;18;4;"F";208,164451827243;306,666589643285;602
5;18;5;"F";152,054117647059;136,401977342205;425
5;19;1;"F";394,190972222222;477,666026926687;4032
5;19;2;"F";536,232984293194;571,179909383142;382
5;19;3;"F";603,292333149476;643,26114011327;3626
5;19;4;"F";297,165401301518;364,629161879874;1844
5;19;5;"F";234,357636224098;239,277030218338;1303
5;20;1;"F";461,606433677522;507,41299545304;5036
5;20;2;"F";717,36;615,133817658609;500
5;20;3;"F";725,432073544433;651,862893208052;4895
5;20;4;"F";425,168561348491;467,688864028975;2551
5;20;5;"F";267,256130790191;276,587281574067;1835
5;21;1;"F";590,961337209302;578,726853031283;6880
5;21;2;"F";850,461773700306;631,801062648013;654
5;21;3;"F";913,634779903562;670,218057753048;6429
5;21;4;"F";663,37287647567;618,728376274616;3473
5;21;5;"F";308,982898674647;345,817985741914;2339
5;22;1;"F";693,623508435057;633,226730418644;7291
5;22;2;"F";953,452488687783;664,175281087867;663
5;22;3;"F";1046,96031981048;677,965304313182;6754
5;22;4;"F";958,168665067946;714,203271085603;3753
5;22;5;"F";399,032567849687;429,432713098621;2395
5;23;1;"F";820,182501467998;678,246260026839;8515
5;23;2;"F";1018,38151041667;689,970410356464;768
5;23;3;"F";1145,77982233503;674,754584897577;7880
5;23;4;"F";1211,79808121374;715,518717190054;4482
5;23;5;"F";587,66782729805;575,688298262408;2872
5;24;1;"F";958,872475476053;695,725182992494;8665
5;24;2;"F";1074,20822622108;695,784064887625;778
5;24;3;"F";1213,33978984682;671,909759750086;7899
5;24;4;"F";1381,19655698409;665,031037863694;4589
5;24;5;"F";865,82012704781;710,086169161815;2991
5;25;1;"F";1076,61319966583;710,202253933762;9576
5;25;2;"F";1065,22671156004;706,058536106807;891
5;25;3;"F";1267,45191653436;658,421370348388;8818
5;25;4;"F";1481,12272291467;614,678563769885;5215
5;25;5;"F";1100,95206275421;727,958872897865;3442
5;26;1;"F";1159,79708195364;709,763167992747;9664
5;26;2;"F";1078,03395784543;695,042981132533;854
5;26;3;"F";1273,21871063781;656,115663846892;8733
5;26;4;"F";1527,82407407407;574,340935203627;5184
5;26;5;"F";1260,64170040486;716,768959779133;3458
5;27;1;"F";1212,21120062118;702,901833832433;10303
5;27;2;"F";1136,78645833333;704,118969844919;960
5;27;3;"F";1288,51501968096;667,466420187805;9654
5;27;4;"F";1525,45505129543;558,976421394417;5751
5;27;5;"F";1371,78977871444;682,922437902449;3796
5;28;1;"F";1233,0791538724;701,506300563508;8793
5;28;2;"F";1127,9651416122;707,533632945998;918
5;28;3;"F";1289,89218909421;665,324897059779;8821
5;28;4;"F";1524,29795299469;554,302906500644;5276
5;28;5;"F";1403,32060217452;672,183708860308;3587
5;29;1;"F";1253,17060402685;702,715880395378;7450
5;29;2;"F";1143,69987995198;706,037215196744;833
5;29;3;"F";1297,36959837316;658,042752634573;7868
5;29;4;"F";1505,02883603452;573,346274179646;4751
5;29;5;"F";1412,16325263811;660,07883588531;3222
5;30;1;"F";1254,04058255605;701,035128959501;6111
5;30;2;"F";1161,11716621253;690,274129387877;734
5;30;3;"F";1294,98134642356;660,507496315433;7130
5;30;4;"F";1512,88990384615;549,711877050272;4160
5;30;5;"F";1433,54230769231;634,333755766131;2860
5;31;1;"F";1234,97172182656;698,204717550645;4774
5;31;2;"F";1206,36131934033;727,067130666456;667
5;31;3;"F";1309,30140709946;660,525058636041;6254
5;31;4;"F";1517,05365168539;529,028333848201;3560
5;31;5;"F";1437,47703180212;619,926108476711;2547
5;32;1;"F";1251,33797433797;710,794724024972;3663
5;32;2;"F";1221,38160136286;679,796127992509;587
5;32;3;"F";1328,9605734767;664,810293661627;5301
5;32;4;"F";1502,18136272545;552,835578557942;2994
5;32;5;"F";1429,92640692641;623,876899574773;2079
5;33;1;"F";1272,6497829233;719,517071974014;2764
5;33;2;"F";1216,75757575758;669,047266458241;495
5;33;3;"F";1370,66590857403;694,559413214538;4397
5;33;4;"F";1507,71416938111;547,385492995301;2456
5;33;5;"F";1455,42630651791;625,765125321809;1703
5;34;1;"F";1264,58147773279;722,428791946975;1976
5;34;2;"F";1297,55927835052;707,019824794685;388
5;34;3;"F";1390,66378281623;728,077829355689;3352
5;34;4;"F";1533,90413943355;543,255134549565;1836
5;34;5;"F";1476,29600626468;658,545071632294;1277
5;35;1;"F";1219,17760617761;772,309706133145;1295
5;35;2;"F";1387,1637630662;788,600139095597;287
5;35;3;"F";1430,5249343832;844,242263569419;2286
5;35;4;"F";1526,17312252964;581,796941586198;1265
5;35;5;"F";1474,10285714286;634,002510970037;875
5;36;1;"F";1191,21661721068;785,491478227697;674
5;36;2;"F";1515,60256410256;855,736609156958;156
5;36;3;"F";1471,57783018868;860,143098397324;1272
5;36;4;"F";1551,29985007496;578,231101941283;667
5;36;5;"F";1454,24696356275;635,789949415512;494
6;15;1;"F";344,426751592357;290,82531111899;157
6;15;3;"F";449,060606060606;259,443869097193;33
6;16;1;"F";487,466561762392;452,504432769756;1271
6;16;2;"F";418,675675675676;290,231713373035;37
6;16;3;"F";598,277955271565;485,150369294485;313
6;16;4;"F";273,25;452,981221290801;20
6;17;1;"F";443,169907202828;607,164495781264;4526
6;17;2;"F";418,252032520325;529,714841219434;123
6;17;3;"F";737,228421052632;741,694385916274;950
6;17;4;"F";200,720430107527;306,921148975535;186
6;17;5;"F";115,3875;84,1395004618799;80
6;18;1;"F";331,705733558179;473,286612756691;9488
6;18;2;"F";409,5625;494,178649128938;256
6;18;3;"F";546,535887749595;615,880521595641;1853
6;18;4;"F";202,427734375;236,344988674542;512
6;18;5;"F";159,103773584906;201,683715092617;212
6;19;1;"F";379,095585900286;450,638190690711;15745
6;19;2;"F";511,23544973545;497,79365204188;378
6;19;3;"F";583,039533376539;570,137685090282;3086
6;19;4;"F";356,787526427061;413,045440308435;946
6;19;5;"F";252,92619047619;253,701432738406;420
6;20;1;"F";491,109518869148;510,12246368578;15422
6;20;2;"F";625,648514851485;571,83524169592;404
6;20;3;"F";742,554213402358;602,133527160956;3477
6;20;4;"F";515,911607142857;528,369583403387;1120
6;20;5;"F";364,805907172996;388,73447337425;474
6;21;1;"F";615,764762044653;576,85085733425;13616
6;21;2;"F";787,296103896104;597,48522960334;385
6;21;3;"F";911,30304772858;618,710587496875;3478
6;21;4;"F";804,733660130719;644,527649827874;1224
6;21;5;"F";464,645098039216;466,21785248732;510
6;22;1;"F";769,915487945912;640,229009552069;11241
6;22;2;"F";884,202857142857;613,58186624286;350
6;22;3;"F";1038,92950717405;639,807296473301;3206
6;22;4;"F";1133,02545155993;667,081515810036;1218
6;22;5;"F";630,446601941748;580,032209761664;515
6;23;1;"F";916,924394366197;674,406811722433;8875
6;23;2;"F";965,439189189189;638,559233426779;296
6;23;3;"F";1120,22822609314;643,79471325578;2813
6;23;4;"F";1320,17737789203;644,007778765477;1167
6;23;5;"F";866,696153846154;664,545809506881;520
6;24;1;"F";1046,45974928259;688,361826372234;6621
6;24;2;"F";1006,47391304348;698,289567641675;230
6;24;3;"F";1195,35987404408;648,598796472226;2223
6;24;4;"F";1439,84455445545;581,441923327878;1010
6;24;5;"F";1127,3367983368;678,755438036333;481
6;25;1;"F";1148,13611442193;689,368090469817;4195
6;25;2;"F";961,5;669,069464618472;166
6;25;3;"F";1228,30415335463;664,239683818623;1565
6;25;4;"F";1483,09511228534;552,822858278137;757
6;25;5;"F";1289,70053475936;654,074256182163;374
6;26;1;"F";1224,77889182058;691,234378008575;1895
6;26;2;"F";1051,70526315789;754,458321588779;95
6;26;3;"F";1292,14430379747;656,831627208296;790
6;26;4;"F";1548,58133971292;511,504011987449;418
6;26;5;"F";1408,90867579909;638,9619813729;219
