"cohort";"age";"educ5";"sex";"mnbheur";"sdnbheur";"n"
2;41;1;"H";1540,13253012048;827,614150633806;166
2;41;2;"H";1664,16504854369;718,216872481625;309
2;41;3;"H";1696,63636363636;725,392470013683;539
2;41;4;"H";1849,3125;727,323335337857;64
2;41;5;"H";1564,90666666667;884,224384102498;75
2;42;1;"H";1658,38867924528;754,870350512905;265
2;42;2;"H";1761,61514195584;677,990637875494;634
2;42;3;"H";1803,1977294229;634,453743563795;1057
2;42;4;"H";1783,83647798742;610,662307747885;159
2;42;5;"H";1663,39130434783;785,422865196776;161
2;43;1;"H";1651,40145985401;694,448660982291;548
2;43;2;"H";1756,85160202361;628,695129729116;1186
2;43;3;"H";1793,87938844847;610,311284207965;1766
2;43;4;"H";1726,14285714286;664,968004063784;273
2;43;5;"H";1661,82592592593;783,614650997819;270
2;44;1;"H";1686,30478955007;697,428147080686;689
2;44;2;"H";1805,49869791667;626,948742507077;1536
2;44;3;"H";1812,24686554259;613,463620224546;2313
2;44;4;"H";1776,8487394958;840,371055405799;357
2;44;5;"H";1785,28296703297;676,288155315746;364
2;45;1;"H";1681,58823529412;650,627123321722;918
2;45;2;"H";1768,77777777778;595,728645874616;2070
2;45;3;"H";1804,47149049683;599,987335121072;2999
2;45;4;"H";1738,39308855292;705,827500077425;463
2;45;5;"H";1744,36225596529;756,727793376154;461
2;46;1;"H";1669,07366482505;669,760519899087;1086
2;46;2;"H";1807,46570841889;592,405062753338;2435
2;46;3;"H";1825,48892045455;576,85413861254;3520
2;46;4;"H";1768,16806722689;697,802263282288;595
2;46;5;"H";1748,07664233577;767,401611676267;548
2;47;1;"H";1680,02412451362;634,848258816901;1285
2;47;2;"H";1793,54224635222;585,358964460593;2947
2;47;3;"H";1822,5197193322;568,111452847471;4133
2;47;4;"H";1716,49546827795;696,369486808511;662
2;47;5;"H";1736,19188767551;710,307910123551;641
2;48;1;"H";1683,77231201687;634,183047704006;1423
2;48;2;"H";1805,79548827545;591,276469553436;3369
2;48;3;"H";1811,50371179039;564,818711324568;4580
2;48;4;"H";1706,59294436906;701,989480562007;737
2;48;5;"H";1695,58984910837;766,254362306645;729
2;49;1;"H";1664,55220061412;609,555762785048;1954
2;49;2;"H";1751,71049699131;578,19085049256;4487
2;49;3;"H";1760,77006100422;549,082542049348;6393
2;49;4;"H";1676,54692230071;698,349570627831;991
2;49;5;"H";1717,82258064516;766,345114346492;992
3;31;1;"H";1503,88235294118;767,392110476037;425
3;31;2;"H";1593,75;788,787451687331;100
3;31;3;"H";1665,24613003096;720,332029240225;646
3;31;4;"H";1595,60465116279;844,534343020281;129
3;31;5;"H";1628,76984126984;707,888196400516;126
3;32;1;"H";1533,09167842031;820,514873014154;709
3;32;2;"H";1782,39898989899;765,520583561829;198
3;32;3;"H";1755,4322169059;682,39843544039;1254
3;32;4;"H";1790,09342560554;681,099347454143;289
3;32;5;"H";1716,62724014337;718,0515232535;279
3;33;1;"H";1605,40109034268;725,130427937102;1284
3;33;2;"H";1633,86904761905;691,74255895883;336
3;33;3;"H";1765,45884955752;607,362998494512;2260
3;33;4;"H";1706,72599531616;667,954685816245;427
3;33;5;"H";1694,24367816092;734,79578681307;435
3;34;1;"H";1600,66221374046;719,223581315819;1572
3;34;2;"H";1697,34931506849;664,48564708547;438
3;34;3;"H";1778,41166077739;602,708434943639;2830
3;34;4;"H";1805,05217391304;614,109712863604;575
3;34;5;"H";1767,00174216028;662,065595994913;574
3;35;1;"H";1644,47179487179;654,891497304727;1950
3;35;2;"H";1702,79915730337;649,04652591179;712
3;35;3;"H";1767,46712802768;579,269157163095;3757
3;35;4;"H";1791,02785923754;615,901998982367;682
3;35;5;"H";1690,43810848401;695,871319104222;719
3;36;1;"H";1621,31371661385;678,926753747398;2209
3;36;2;"H";1704,4186746988;658,362882335295;996
3;36;3;"H";1799,31571722718;597,216747929023;4371
3;36;4;"H";1829,02551020408;635,88577362655;784
3;36;5;"H";1756,06949352179;705,345787756945;849
3;37;1;"H";1662,05663430421;651,326219199532;2472
3;37;2;"H";1717,03036876356;632,500255815553;1383
3;37;3;"H";1777,74194167306;570,841892562437;5212
3;37;4;"H";1778,45404208195;606,773581681463;903
3;37;5;"H";1723,11384615385;717,202513909414;975
3;38;1;"H";1664,9162598573;669,004476520178;2663
3;38;2;"H";1743,81324582339;636,292170075251;1676
3;38;3;"H";1797,74918454936;557,765093763671;5825
3;38;4;"H";1768,26766169154;610,623728369943;1005
3;38;5;"H";1724,24358974359;710,77158162891;1092
3;39;1;"H";1626,34016606124;635,055727938023;3854
3;39;2;"H";1730,13344887348;615,621506398834;2308
3;39;3;"H";1760,51619949035;559,752014926699;8241
3;39;4;"H";1703,32258064516;636,500653693969;1488
3;39;5;"H";1715,1328125;711,104203025882;1536
3;40;1;"H";1614,27043390515;639,426353928362;3964
3;40;2;"H";1763,17903596021;629,034929310636;2614
3;40;3;"H";1755,8112016527;564,877507751367;8713
3;40;4;"H";1702,71127633209;636,792840564851;1614
3;40;5;"H";1725,21921182266;726,122558801789;1624
3;41;1;"H";1590,4743697479;612,067870191506;4760
3;41;2;"H";1729,9418487395;586,111048387858;2975
3;41;3;"H";1747,67007746007;545,787486192992;10457
3;41;4;"H";1685,69616204691;642,627632070026;1876
3;41;5;"H";1685,63054968288;710,486348033923;1892
3;42;1;"H";1577,99561036789;611,877693423908;4784
3;42;2;"H";1706,67364572948;583,816583951536;3009
3;42;3;"H";1743,0953526412;538,071896775377;10393
3;42;4;"H";1686,48142164782;596,934921441115;1857
3;42;5;"H";1701,21522309711;740,197200671268;1905
3;43;1;"H";1585,71520302172;611,061907195198;5295
3;43;2;"H";1689,99149659864;576,167870758893;3528
3;43;3;"H";1728,17929713524;539,674896273781;12008
3;43;4;"H";1689,04290429043;620,758156009809;2121
3;43;5;"H";1693,40854779412;707,366372678168;2176
3;44;1;"H";1590,57308496484;585,397106964135;5261
3;44;2;"H";1674,7546955037;595,138554303086;3514
3;44;3;"H";1722,12353433836;536,554494986167;11940
3;44;4;"H";1685,71703561116;593,74251336716;2078
3;44;5;"H";1678,84462886123;697,861265751394;2169
3;45;1;"H";1575,13288751715;597,382213930231;5832
3;45;2;"H";1673,40879120879;568,903697149234;4095
3;45;3;"H";1711,94737236674;531,775852201103;13339
3;45;4;"H";1676,34778799825;599,903001163267;2283
3;45;5;"H";1687,05970149254;687,461040050844;2345
3;46;1;"H";1578,30811554333;600,869090810818;5816
3;46;2;"H";1665,41267883572;574,792171237175;4054
3;46;3;"H";1703,33673855467;523,101597233965;13215
3;46;4;"H";1681,86081560284;606,408723404349;2256
3;46;5;"H";1673,50345423143;680,698546984716;2316
3;47;1;"H";1582,38414239482;600,487904344147;6180
3;47;2;"H";1663,29650793651;554,34643028886;4725
3;47;3;"H";1704,7922095829;520,516811131161;14505
3;47;4;"H";1681,70604953309;580,954177162512;2463
3;47;5;"H";1684,74979951885;701,664460831264;2494
3;48;1;"H";1581,49051286868;598,729166533057;5323
3;48;2;"H";1654,58979456594;553,835018221115;4527
3;48;3;"H";1698,05938967136;514,414291273316;12780
3;48;4;"H";1671,734082397;580,325953373348;2136
3;48;5;"H";1659,5325443787;708,763581618012;2197
3;49;1;"H";1581,22375057313;592,384870126151;4362
3;49;2;"H";1657,2299765808;574,274363271464;4270
3;49;3;"H";1693,78400784454;511,558413215967;11218
3;49;4;"H";1671,85324604474;600,933925410407;1833
3;49;5;"H";1662,0903774588;702,272468882968;1881
4;21;1;"H";944,043981481482;826,94149553657;432
4;21;2;"H";909,934065934066;823,476314200257;91
4;21;3;"H";913,096711798839;847,632595975688;517
4;21;4;"H";418,61963190184;581,070449061646;163
4;21;5;"H";248,488372093023;360,726829563397;129
4;22;1;"H";986,694480102696;804,907113776204;779
4;22;2;"H";1036,36781609195;754,613863894963;174
4;22;3;"H";944,594339622642;819,159141624464;1060
4;22;4;"H";559,2;645,551073641152;425
4;22;5;"H";391,529085872576;488,507102031276;361
4;23;1;"H";1150,28329654157;797,016563197354;1359
4;23;2;"H";1094,53378378378;756,952197541735;296
4;23;3;"H";1230,6625;791,996675473279;2000
4;23;4;"H";775,69014084507;721,299893986998;639
4;23;5;"H";504,657743785851;551,602162663155;523
4;24;1;"H";1183,6938150643;785,610835041444;1633
4;24;2;"H";1292,49582172702;797,304831101366;359
4;24;3;"H";1367,96427213987;779,716726528281;2631
4;24;4;"H";1093,82232346241;777,219728644002;878
4;24;5;"H";671,317757009346;663,626018536332;749
4;25;1;"H";1286,21759259259;778,3098479537;2160
4;25;2;"H";1448,23270440252;734,321211128379;477
4;25;3;"H";1522,74276527331;710,069201548397;3732
4;25;4;"H";1389,8631211857;762,132413906125;1147
4;25;5;"H";989,949570815451;781,322227942714;932
4;26;1;"H";1357,3266721044;763,667209742623;2452
4;26;2;"H";1506,81090909091;735,51444684664;550
4;26;3;"H";1602,41787214186;691,533019836473;4286
4;26;4;"H";1597,95558958652;696,010676925305;1306
4;26;5;"H";1302,44444444444;806,951186077021;1251
4;27;1;"H";1417,64882943144;740,372450480307;2990
4;27;2;"H";1603,17604617605;685,782644877355;693
4;27;3;"H";1658,83712752175;651,275731917072;5403
4;27;4;"H";1674,12994722955;641,676245130376;1516
4;27;5;"H";1499,73049180328;746,091104254603;1525
4;28;1;"H";1442,19935408103;743,7485651983;3406
4;28;2;"H";1610,47074122237;676,50980991101;769
4;28;3;"H";1677,72486413043;637,866085933526;5888
4;28;4;"H";1716,68801897983;617,310263933188;1686
4;28;5;"H";1580,04091174752;721,038935747069;1711
4;29;1;"H";1473,32150644202;695,698002761332;5045
4;29;2;"H";1585,50667853963;668,28485386106;1123
4;29;3;"H";1678,71574498063;609,544698258884;8517
4;29;4;"H";1732,37091988131;544,296052461171;2359
4;29;5;"H";1628,39586846543;668,823140764984;2372
4;30;1;"H";1473,36692650334;717,310573206919;5388
4;30;2;"H";1606,22296173045;677,967189923698;1202
4;30;3;"H";1686,24464088398;625,062326994176;9050
4;30;4;"H";1709,84099920698;565,515632567814;2522
4;30;5;"H";1661,16452648475;631,641229283499;2492
4;31;1;"H";1477,82497348083;685,646484917808;6599
4;31;2;"H";1588,69914040115;642,68816925109;1396
4;31;3;"H";1687,0646167967;589,353562535574;10895
4;31;4;"H";1698,06651147323;555,603051405503;3007
4;31;5;"H";1659,80227642276;634,62903517843;3075
4;32;1;"H";1478,07090280907;680,238216605192;6657
4;32;2;"H";1582,94520547945;621,895808561848;1387
4;32;3;"H";1685,16834426078;578,855218729928;10829
4;32;4;"H";1695,87692307692;553,711044328603;2990
4;32;5;"H";1656,89618021547;620,89717828667;3063
4;33;1;"H";1473,91551519937;675,661084027075;7599
4;33;2;"H";1587,09563543004;622,680746433008;1558
4;33;3;"H";1672,8564077826;569,697046875482;12438
4;33;4;"H";1708,99468242245;513,546939043123;3385
4;33;5;"H";1651,26348665531;605,268712223971;3522
4;34;1;"H";1488,35598958333;662,026284993037;7680
4;34;2;"H";1608,82903225806;601,318881690973;1550
4;34;3;"H";1662,67452563585;567,535552151995;12385
4;34;4;"H";1695,97343565525;515,236798807459;3388
4;34;5;"H";1676,96948762234;592,565695832322;3474
4;35;1;"H";1494,51657329599;652,430235569386;8568
4;35;2;"H";1597,71899886234;606,114161123951;1758
4;35;3;"H";1661,93440285205;550,777412744228;14025
4;35;4;"H";1696,72136890326;506,013281389108;3711
4;35;5;"H";1673,92006269592;585,151861220339;3828
4;36;1;"H";1493,78409616274;639,517343856661;8652
4;36;2;"H";1570,59852356616;604,121754151205;1761
4;36;3;"H";1659,75086009174;538,729578224417;13952
4;36;4;"H";1690,13879194631;502,742616947164;3725
4;36;5;"H";1681,63337748344;597,685193486139;3775
4;37;1;"H";1496,65657196378;648,288534535302;9609
4;37;2;"H";1567,40906722251;608,775862722471;1919
4;37;3;"H";1661,41263009122;538,278837068709;15566
4;37;4;"H";1692,34169741697;497,452556887493;4065
4;37;5;"H";1680,07450980392;605,395314219794;4080
4;38;1;"H";1508,92363893472;634,729349521621;8486
4;38;2;"H";1580,10473961381;580,981273531386;1709
4;38;3;"H";1658,56202209006;534,79404461899;14124
4;38;4;"H";1689,98694806998;507,138194070563;3601
4;38;5;"H";1688,82305555556;617,253425821476;3600
4;39;1;"H";1514,72739468742;635,26359318621;7454
4;39;2;"H";1593,05193075899;595,447145511282;1502
4;39;3;"H";1656,88927417448;540,736556996426;12689
4;39;4;"H";1700,95677994061;495,376939302582;3031
4;39;5;"H";1686,06655844156;600,890619541786;3080
4;40;1;"H";1531,67554932211;618,836299114624;6417
4;40;2;"H";1595,96951672862;600,746065018786;1345
4;40;3;"H";1667,59627716423;530,226675590068;11228
4;40;4;"H";1708,34767166535;472,653529702103;2534
4;40;5;"H";1684,78808971384;617,850980722964;2586
4;41;1;"H";1546,44664879357;619,408758137634;5595
4;41;2;"H";1616,18166238218;561,88272819747;1167
4;41;3;"H";1677,41663277755;517,36317089523;9836
4;41;4;"H";1697,74953531599;499,268142208223;2152
4;41;5;"H";1678,70525830258;624,08525053507;2168
4;42;1;"H";1552,88995726496;604,336377363916;4680
4;42;2;"H";1631,2147922999;561,570005122405;987
4;42;3;"H";1681,32393162393;520,399662725089;8190
4;42;4;"H";1690,55833807627;511,785990913819;1757
4;42;5;"H";1675,91850989523;625,355838408001;1718
4;43;1;"H";1568,87127659574;594,242984460433;3760
4;43;2;"H";1611,02420382166;586,69178291324;785
4;43;3;"H";1688,48301599391;514,023208454067;6565
4;43;4;"H";1721,16485900217;527,556881942245;1383
4;43;5;"H";1708,18038922156;664,399979664679;1336
4;44;1;"H";1572,40873579545;600,067981508471;2816
4;44;2;"H";1596,8701754386;588,738173464675;570
4;44;3;"H";1688,71776792909;515,817382366097;4964
4;44;4;"H";1694,73538156591;496,191261713935;1009
4;44;5;"H";1675,39175257732;632,121751161153;970
4;45;1;"H";1570,19564061669;580,211163873219;1881
4;45;2;"H";1627,72299168975;556,764039136391;361
4;45;3;"H";1686,38845925045;503,756484088292;3362
4;45;4;"H";1726,66825396825;502,932187119838;630
4;45;5;"H";1657,47334410339;664,356157540348;619
4;46;1;"H";1561,58102345416;620,325478603542;938
4;46;2;"H";1650,71794871795;575,808904293613;195
4;46;3;"H";1691,34777448071;526,763260096733;1685
4;46;4;"H";1742,93425605536;481,280654690579;289
4;46;5;"H";1710,96587030717;663,888817382002;293
5;15;1;"H";373,133333333333;330,311944913261;15
5;15;3;"H";554,647058823529;445,61848361707;51
5;16;1;"H";609,981432360743;448,923383709915;377
5;16;2;"H";652,078947368421;488,002624138877;38
5;16;3;"H";771,75;497,897722006184;476
5;16;4;"H";827,75;869,135470836777;16
5;16;5;"H";161,125;206,689855649888;8
5;17;1;"H";856,800804828974;786,292684603119;994
5;17;2;"H";889,245283018868;735,733308453555;106
5;17;3;"H";1102,81188118812;819,863739211834;1212
5;17;4;"H";326,195804195804;536,96505326974;143
5;17;5;"H";173,102803738318;199,911439570901;107
5;18;1;"H";675,157202944269;715,561581306553;1902
5;18;2;"H";726,821739130435;699,054900641215;230
5;18;3;"H";937,732311852186;779,967551807455;2219
5;18;4;"H";235,615571776156;321,040538661779;411
5;18;5;"H";188,01572327044;251,758314586342;318
5;19;1;"H";552,499802449625;605,261651817296;5062
5;19;2;"H";667,856862745098;639,486081959262;510
5;19;3;"H";850,740629384646;733,228545758852;4989
5;19;4;"H";310,478939157566;364,596372950825;1282
5;19;5;"H";242,302093718843;256,178404078429;1003
5;20;1;"H";620,451289633646;632,237729068533;6087
5;20;2;"H";758,47256097561;648,353547773182;656
5;20;3;"H";909,492058449809;728,497027610926;6296
5;20;4;"H";445,950885208452;498,63023217962;1751
5;20;5;"H";304,362903225806;361,301750311784;1364
5;21;1;"H";741,913562559694;668,244376554217;8376
5;21;2;"H";960,285882352941;690,252612070016;850
5;21;3;"H";1092,54800048918;712,758868190484;8177
5;21;4;"H";657,121565362198;626,443875038014;2402
5;21;5;"H";367,014568764569;425,387638438537;1716
5;22;1;"H";857,116386264116;704,636868092557;8678
5;22;2;"H";1086,43212669683;692,755558470063;884
5;22;3;"H";1228,17624113475;709,817290346579;8460
5;22;4;"H";916,101443620757;701,557886034311;2563
5;22;5;"H";473,447986577181;522,485835528912;1788
5;23;1;"H";964,399653479642;723,354567316497;10389
5;23;2;"H";1164,68525519849;726,968298152286;1058
5;23;3;"H";1324,52283128242;690,716345607915;9833
5;23;4;"H";1191,11247105524;717,646001526907;3023
5;23;5;"H";654,905780609923;621,142252880582;2197
5;24;1;"H";1083,35154792988;724,406815938086;10724
5;24;2;"H";1242,99342723005;696,153680149239;1065
5;24;3;"H";1433,42638315026;650,774448393769;9923
5;24;4;"H";1388,01185517462;663,710624541024;3121
5;24;5;"H";939,687687687688;695,293231325068;2331
5;25;1;"H";1197,82497082847;714,528095647585;11998
5;25;2;"H";1304,71393034826;694,555790640326;1206
5;25;3;"H";1489,52632042254;634,002085512644;11360
5;25;4;"H";1522,78330522766;606,801682792803;3558
5;25;5;"H";1205,74164570607;724,383241278816;2783
5;26;1;"H";1275,83244045166;697,279304144389;12133
5;26;2;"H";1336,24244966443;676,317287839395;1192
5;26;3;"H";1513,28973451327;617,635776721923;11300
5;26;4;"H";1587,5881531154;566,52534813335;3579
5;26;5;"H";1382,29081990189;685,197636034621;2854
5;27;1;"H";1335,41399817017;682,547723079184;13116
5;27;2;"H";1371,52199850858;675,775201406947;1341
5;27;3;"H";1540,91190438499;611,265316779052;12634
5;27;4;"H";1621,352;541,245696816229;4000
5;27;5;"H";1492,65047943087;626,116307798825;3233
5;28;1;"H";1363,84990016494;679,71132061938;11519
5;28;2;"H";1401,7581027668;688,759453965444;1265
5;28;3;"H";1553,63603696099;603,861520129035;11688
5;28;4;"H";1629,41713823767;549,712211467657;3711
5;28;5;"H";1553,98102094241;599,164210815234;3056
5;29;1;"H";1369,99509001637;676,953081198897;9776
5;29;2;"H";1407,46008583691;681,602210502969;1165
5;29;3;"H";1567,56991807963;595,989446969768;10498
5;29;4;"H";1656,38659485338;518,763318460835;3342
5;29;5;"H";1587,03464285714;584,303796522676;2800
5;30;1;"H";1393,01893014167;671,643140099031;8188
5;30;2;"H";1450,61779081134;645,77341602881;1023
5;30;3;"H";1568,13392479932;575,551057668603;9468
5;30;4;"H";1671,62283621838;501,676870314885;3004
5;30;5;"H";1610,93964828137;564,567411572676;2502
5;31;1;"H";1416,54642749472;664,474175174542;6634
5;31;2;"H";1434,67954545455;653,229003910023;880
5;31;3;"H";1584,59593023256;567,367242950726;8256
5;31;4;"H";1672,94855182927;496,988724846615;2624
5;31;5;"H";1614,17424931756;572,959125442324;2198
5;32;1;"H";1419,20758673275;668,294051566382;5246
5;32;2;"H";1516,42019099591;622,68815992421;733
5;32;3;"H";1600,72664756447;566,039239082465;6980
5;32;4;"H";1692,56906837999;473,342520356278;2179
5;32;5;"H";1632,8969017094;557,861458897612;1872
5;33;1;"H";1418,54156358238;670,669600710976;4042
5;33;2;"H";1572,23211169284;573,552955909714;573
5;33;3;"H";1610,08014059754;553,607409864265;5690
5;33;4;"H";1705,7414084507;467,300740566961;1775
5;33;5;"H";1676,44218134034;542,514877930347;1522
5;34;1;"H";1430,73258662933;673,031747458392;2857
5;34;2;"H";1546,61625282167;589,865056204916;443
5;34;3;"H";1622,25646401118;545,309082100871;4293
5;34;4;"H";1720,89154824233;471,064900173554;1337
5;34;5;"H";1691,47531380753;528,361981602396;1195
5;35;1;"H";1413,47608812466;679,943145229894;1861
5;35;2;"H";1493,45723684211;611,467340416723;304
5;35;3;"H";1622,30268981954;553,026110953826;2937
5;35;4;"H";1709,2822491731;443,936852578716;907
5;35;5;"H";1680,42821782178;572,013357436946;808
5;36;1;"H";1416,02521008403;666,357688700428;952
5;36;2;"H";1465,91304347826;619,556952500175;161
5;36;3;"H";1600,66160657812;564,614267319253;1581
5;36;4;"H";1722,27173913043;465,028640232642;460
5;36;5;"H";1685,78289473684;579,756245684394;456
6;15;1;"H";424,928205128205;270,397365357251;390
6;15;2;"H";506,666666666667;204,867436813825;6
6;15;3;"H";506,765517241379;230,147658332678;145
6;16;1;"H";586,907943349754;436,230314658296;3248
6;16;2;"H";451,265306122449;302,008757673947;98
6;16;3;"H";691,943449575872;480,429590198871;1061
6;16;4;"H";719;675,315111633081;21
6;16;5;"H";277,875;625,646508478573;8
6;17;1;"H";742,388570667377;708,443477921455;7507
6;17;2;"H";671,566964285714;668,177250843669;224
6;17;3;"H";1021,76297968397;739,819137473334;2215
6;17;4;"H";263,404761904762;398,107292102384;168
6;17;5;"H";304,606557377049;487,449254749953;61
6;18;1;"H";598,098261731064;643,468909160393;11103
6;18;2;"H";532,703389830509;560,217227839416;354
6;18;3;"H";887,123072177668;690,693821399564;3242
6;18;4;"H";280,657608695652;353,754409408961;368
6;18;5;"H";254,492857142857;386,263180426156;140
6;19;1;"H";551,149540258449;588,766122290645;16096
6;19;2;"H";640,752918287938;576,271760162398;514
6;19;3;"H";884,719808960655;686,156153025013;4397
6;19;4;"H";362,80056980057;427,143770174756;702
6;19;5;"H";279,369337979094;335,048565784388;287
6;20;1;"H";659,441637517813;625,076993737349;15438
6;20;2;"H";814,295081967213;626,674807398218;549
6;20;3;"H";1018,22522906456;684,516032873633;4693
6;20;4;"H";536,928297055058;534,515973214391;781
6;20;5;"H";349,143292682927;369,307146417777;328
6;21;1;"H";782,217518461651;667,321249281633;13677
6;21;2;"H";963,405303030303;675,389379946768;528
6;21;3;"H";1194,15934065934;674,224820264519;4550
6;21;4;"H";840,926801801802;661,380115776597;888
6;21;5;"H";477,332369942197;513,287321796736;346
6;22;1;"H";921,875363340086;693,424865251483;11353
6;22;2;"H";1047,8813559322;666,323514693427;472
6;22;3;"H";1317,1703492516;658,159249089801;4209
6;22;4;"H";1187,22706935123;683,673529438091;894
6;22;5;"H";716,97783933518;608,444738252818;361
6;23;1;"H";1033,54682144831;698,97740064644;9045
6;23;2;"H";1122,50639386189;691,680472646919;391
6;23;3;"H";1395,92978606692;636,197911599033;3646
6;23;4;"H";1404,98746867168;633,937718715646;798
6;23;5;"H";1043,40458015267;710,496694386449;393
6;24;1;"H";1140,09598315029;700,477948130738;6647
6;24;2;"H";1184,02912621359;670,359858626693;309
6;24;3;"H";1435,76860895925;635,509066494318;2969
6;24;4;"H";1499,33634992459;609,534927453258;663
6;24;5;"H";1318,88088642659;641,236457249492;361
6;25;1;"H";1240,84997588037;697,253708185914;4146
6;25;2;"H";1211,12980769231;719,512172014663;208
6;25;3;"H";1451,653190453;621,857742718657;2053
6;25;4;"H";1564,57081545064;558,765906247992;466
6;25;5;"H";1463,15306122449;625,970389643738;294
6;26;1;"H";1301,35611688955;693,920984322873;2019
6;26;2;"H";1227,46153846154;688,070468324382;104
6;26;3;"H";1499,758;606,332605642039;1000
6;26;4;"H";1507,36220472441;623,886222389002;254
6;26;5;"H";1579,38513513514;547,428714629277;148
