"cohort";"age";"educ5";"sex";"mnbheur";"n"
2;41;1;"F";1245,28244274809;131
2;41;2;"F";1339,70967741935;341
2;41;3;"F";1481,85318559557;361
2;41;4;"F";1383,65753424658;73
2;41;5;"F";1241,94736842105;38
2;42;1;"F";1449,68619246862;239
2;42;2;"F";1534;755
2;42;3;"F";1654,56790123457;729
2;42;4;"F";1841,76888888889;225
2;42;5;"F";1469,78651685393;89
2;43;1;"F";1376,04714640199;403
2;43;2;"F";1472,39024390244;1230
2;43;3;"F";1555,31403647898;1261
2;43;4;"F";1610,6814159292;339
2;43;5;"F";1433,88888888889;144
2;44;1;"F";1402,96197718631;526
2;44;2;"F";1543,72117794486;1596
2;44;3;"F";1631,53697949037;1609
2;44;4;"F";1716,94893617021;470
2;44;5;"F";1552,22826086957;184
2;45;1;"F";1351,2023633678;677
2;45;2;"F";1516,85902255639;2128
2;45;3;"F";1568,90545625588;2126
2;45;4;"F";1632,60387323944;568
2;45;5;"F";1519,35526315789;228
2;46;1;"F";1312,46899224806;774
2;46;2;"F";1560,96401739818;2529
2;46;3;"F";1604,94960760017;2421
2;46;4;"F";1660,3362701909;681
2;46;5;"F";1501,62835249042;261
2;47;1;"F";1318,36013590034;883
2;47;2;"F";1520,11367275056;3123
2;47;3;"F";1589,8946998947;2849
2;47;4;"F";1615,70442708333;768
2;47;5;"F";1412,97427652733;311
2;48;1;"F";1362,78012684989;946
2;48;2;"F";1544,31947291362;3415
2;48;3;"F";1586,58588761175;3132
2;48;4;"F";1651,22248803828;836
2;48;5;"F";1398,95906432749;342
2;49;1;"F";1343,65549493375;1283
2;49;2;"F";1514,17416576964;4645
2;49;3;"F";1549,35644686155;4413
2;49;4;"F";1580,46463815789;1216
2;49;5;"F";1420,07740585774;478
3;31;1;"F";1266,03265306122;245
3;31;2;"F";1342,27777777778;108
3;31;3;"F";1437,37547169811;530
3;31;4;"F";1545,02290076336;131
3;31;5;"F";1485,4693877551;98
3;32;1;"F";1366,67387033399;509
3;32;2;"F";1391,04184100418;239
3;32;3;"F";1531,53392330383;1017
3;32;4;"F";1632,45454545455;330
3;32;5;"F";1536,49576271186;236
3;33;1;"F";1290,75953757225;865
3;33;2;"F";1353,59810874704;423
3;33;3;"F";1506,61224489796;1715
3;33;4;"F";1586,09355509356;481
3;33;5;"F";1442,59888579387;359
3;34;1;"F";1328,72093023256;1118
3;34;2;"F";1452,04725897921;529
3;34;3;"F";1545,44908030507;2229
3;34;4;"F";1647,17164179104;670
3;34;5;"F";1499,09251101322;454
3;35;1;"F";1331,84335560505;1347
3;35;2;"F";1396,25214198286;817
3;35;3;"F";1510,61992363763;2881
3;35;4;"F";1558,43525179856;834
3;35;5;"F";1472,20715630885;531
3;36;1;"F";1338,00796812749;1506
3;36;2;"F";1464,35207373272;1085
3;36;3;"F";1539,28876201923;3328
3;36;4;"F";1615,51881188119;1010
3;36;5;"F";1512,01800327332;611
3;37;1;"F";1298,40973401245;1767
3;37;2;"F";1409,9775357386;1469
3;37;3;"F";1516,61830525522;3977
3;37;4;"F";1565,34893617021;1175
3;37;5;"F";1503,83308714919;677
3;38;1;"F";1320,52969247084;1886
3;38;2;"F";1482,96374790853;1793
3;38;3;"F";1528,21795156632;4501
3;38;4;"F";1571,45755395683;1390
3;38;5;"F";1463,08556149733;748
3;39;1;"F";1266,15042608373;2699
3;39;2;"F";1448,9477254589;2506
3;39;3;"F";1520,46956521739;6440
3;39;4;"F";1520,02608695652;1955
3;39;5;"F";1431,85456273764;1052
3;40;1;"F";1250,99929577465;2840
3;40;2;"F";1464,55262255742;2917
3;40;3;"F";1522,11233157586;6828
3;40;4;"F";1519,56128726929;2113
3;40;5;"F";1409,32415059688;1089
3;41;1;"F";1237,42800788955;3549
3;41;2;"F";1460,94750733138;3410
3;41;3;"F";1497,53876016014;8243
3;41;4;"F";1497,73528217621;2463
3;41;5;"F";1416,35353535354;1287
3;42;1;"F";1261,41738167728;3613
3;42;2;"F";1463,83367556468;3409
3;42;3;"F";1495,38141486811;8340
3;42;4;"F";1499,996;2500
3;42;5;"F";1416,17881811205;1303
3;43;1;"F";1265,64464023495;4086
3;43;2;"F";1442,01344743276;4090
3;43;3;"F";1497,49349039058;9678
3;43;4;"F";1487,0656424581;2864
3;43;5;"F";1415,22748498999;1499
3;44;1;"F";1269,24255420538;4197
3;44;2;"F";1437,66254545455;4125
3;44;3;"F";1500,68495265541;9716
3;44;4;"F";1488,60432658758;2866
3;44;5;"F";1415,39666666667;1500
3;45;1;"F";1287,21437795954;4646
3;45;2;"F";1440,01163757273;4812
3;45;3;"F";1504,69119912988;11033
3;45;4;"F";1504,55156537753;3258
3;45;5;"F";1425,15463297232;1662
3;46;1;"F";1311,03073727934;4815
3;46;2;"F";1432,91322901849;4921
3;46;3;"F";1521,16163155536;11155
3;46;4;"F";1511,31752386819;3247
3;46;5;"F";1457,9969715324;1651
3;47;1;"F";1329,56054576464;5277
3;47;2;"F";1446,56494522692;5751
3;47;3;"F";1536,99513263568;12327
3;47;4;"F";1525,65302642796;3519
3;47;5;"F";1453,78420148827;1747
3;48;1;"F";1358,53208206024;4582
3;48;2;"F";1433,07730263158;5472
3;48;3;"F";1543,11917960089;10824
3;48;4;"F";1517,67297817715;3116
3;48;5;"F";1462,52628077179;1503
3;49;1;"F";1378,14326872708;3818
3;49;2;"F";1447,65865572489;5118
3;49;3;"F";1548,49047619048;9450
3;49;4;"F";1540,40932452276;2724
3;49;5;"F";1457,25223033252;1233
4;21;1;"F";752,03137254902;255
4;21;2;"F";925,506024096386;83
4;21;3;"F";860,889583333333;480
4;21;4;"F";588,440594059406;202
4;21;5;"F";313,083333333333;168
4;22;1;"F";839,290836653386;502
4;22;2;"F";861,786163522013;159
4;22;3;"F";959,447422680412;970
4;22;4;"F";803,76245210728;522
4;22;5;"F";356,427536231884;414
4;23;1;"F";919,412442396313;868
4;23;2;"F";1094,964;250
4;23;3;"F";1152,76744186047;1806
4;23;4;"F";1046,08577878104;886
4;23;5;"F";519,267884322679;657
4;24;1;"F";997,1826171875;1024
4;24;2;"F";1221,53311258278;302
4;24;3;"F";1260,09166666667;2160
4;24;4;"F";1288,95016611296;1204
4;24;5;"F";745,742630385487;882
4;25;1;"F";1066,96579330422;1374
4;25;2;"F";1189,24082568807;436
4;25;3;"F";1314,89470198675;3020
4;25;4;"F";1479,25819397993;1495
4;25;5;"F";996,603669724771;1090
4;26;1;"F";1124,50445859873;1570
4;26;2;"F";1225,95463917526;485
4;26;3;"F";1370,91028571429;3500
4;26;4;"F";1593,4275862069;1740
4;26;5;"F";1200,23926380368;1304
4;27;1;"F";1145,29485776805;1828
4;27;2;"F";1252,37005163511;581
4;27;3;"F";1402,22503483511;4306
4;27;4;"F";1591,8717693837;2012
4;27;5;"F";1315,73133333333;1500
4;28;1;"F";1179,582;2000
4;28;2;"F";1272,93720565149;637
4;28;3;"F";1408,68634840871;4776
4;28;4;"F";1637,41828621908;2264
4;28;5;"F";1410,78054862843;1604
4;29;1;"F";1182,96089765386;2941
4;29;2;"F";1290,26086956522;920
4;29;3;"F";1404,58528072838;6590
4;29;4;"F";1597,84090187361;3149
4;29;5;"F";1459,39506707053;2311
4;30;1;"F";1211,64362714014;3154
4;30;2;"F";1291,46812749004;1004
4;30;3;"F";1397,40473811902;7007
4;30;4;"F";1581,48353658537;3280
4;30;5;"F";1454,05976916735;2426
4;31;1;"F";1185,11981082501;3806
4;31;2;"F";1266,13563605729;1187
4;31;3;"F";1375,6864557412;8439
4;31;4;"F";1546,04974489796;3920
4;31;5;"F";1444,66390328152;2895
4;32;1;"F";1183,63840785733;3869
4;32;2;"F";1260,88532883643;1186
4;32;3;"F";1372,75562165378;8405
4;32;4;"F";1515,30924109448;3874
4;32;5;"F";1440,85634197617;2854
4;33;1;"F";1172,31909152237;4447
4;33;2;"F";1266,44387001477;1354
4;33;3;"F";1367,02721019624;9886
4;33;4;"F";1503,04192439863;4365
4;33;5;"F";1421,0434647625;3221
4;34;1;"F";1182,69407391209;4573
4;34;2;"F";1256,70495333812;1393
4;34;3;"F";1373,57797797798;9990
4;34;4;"F";1489,50285714286;4375
4;34;5;"F";1430,18724727838;3215
4;35;1;"F";1175,25377643505;5296
4;35;2;"F";1287,44083969466;1572
4;35;3;"F";1376,99209347272;11383
4;35;4;"F";1492,91004745203;4847
4;35;5;"F";1431,12230419977;3524
4;36;1;"F";1193,99392153251;5429
4;36;2;"F";1283,2388337469;1612
4;36;3;"F";1391,12165197857;11574
4;36;4;"F";1487,02438520355;4839
4;36;5;"F";1442,42245835727;3482
4;37;1;"F";1213,04314477469;6258
4;37;2;"F";1324,70783460283;1838
4;37;3;"F";1409,49082949657;13249
4;37;4;"F";1494,31646768998;5277
4;37;5;"F";1449,39359698682;3717
4;38;1;"F";1233,61199446941;5786
4;38;2;"F";1343,76627218935;1690
4;38;3;"F";1420,35313719116;12304
4;38;4;"F";1498,7759810263;4638
4;38;5;"F";1448,89369708373;3189
4;39;1;"F";1247,96245403522;5167
4;39;2;"F";1351,47158719791;1531
4;39;3;"F";1443,00818286934;11243
4;39;4;"F";1501,20588975585;3973
4;39;5;"F";1433,68227424749;2691
4;40;1;"F";1279,43007067895;4669
4;40;2;"F";1355,99858256556;1411
4;40;3;"F";1472,22629331745;10071
4;40;4;"F";1519,04687036488;3371
4;40;5;"F";1452,80017961383;2227
4;41;1;"F";1291,5310880829;4246
4;41;2;"F";1397,15870570108;1298
4;41;3;"F";1497,44608879493;8987
4;41;4;"F";1515,25316455696;2844
4;41;5;"F";1459,78602860286;1818
4;42;1;"F";1326,43689588511;3621
4;42;2;"F";1403,68238434164;1124
4;42;3;"F";1504,44469259065;7612
4;42;4;"F";1527,71718480138;2316
4;42;5;"F";1460,75210084034;1428
4;43;1;"F";1353,12389380531;2938
4;43;2;"F";1442,73867228662;949
4;43;3;"F";1532,87011105746;6213
4;43;4;"F";1546,6076581576;1802
4;43;5;"F";1450,66159355416;1117
4;44;1;"F";1413,45291283399;2283
4;44;2;"F";1454,66756393001;743
4;44;3;"F";1555,76637876554;4747
4;44;4;"F";1531,18319454958;1321
4;44;5;"F";1447,98671497585;828
4;45;1;"F";1435,45078979344;1646
4;45;2;"F";1534,18363636364;550
4;45;3;"F";1584,6529793146;3239
4;45;4;"F";1553,9281575898;863
4;45;5;"F";1452,41143911439;542
4;46;1;"F";1465,76385542169;830
4;46;2;"F";1597,24113475177;282
4;46;3;"F";1614,30207677785;1589
4;46;4;"F";1561,44964871194;427
4;46;5;"F";1430,13846153846;260
5;15;1;"F";225,857142857143;7
5;15;3;"F";646,785714285714;14
5;16;1;"F";549,976;125
5;16;2;"F";444,363636363636;11
5;16;3;"F";774,006622516556;151
5;16;4;"F";338,875;16
5;16;5;"F";91,5714285714286;7
5;17;1;"F";586,379690949227;453
5;17;2;"F";512,137254901961;51
5;17;3;"F";851,980158730159;504
5;17;4;"F";187,953488372093;129
5;17;5;"F";128,571428571429;84
5;18;1;"F";404,263406940063;1268
5;18;2;"F";455,027397260274;146
5;18;3;"F";662,617917304747;1306
5;18;4;"F";208,164451827243;602
5;18;5;"F";152,054117647059;425
5;19;1;"F";394,190972222222;4032
5;19;2;"F";536,232984293194;382
5;19;3;"F";603,292333149476;3626
5;19;4;"F";297,165401301518;1844
5;19;5;"F";234,357636224098;1303
5;20;1;"F";461,606433677522;5036
5;20;2;"F";717,36;500
5;20;3;"F";725,432073544433;4895
5;20;4;"F";425,168561348491;2551
5;20;5;"F";267,256130790191;1835
5;21;1;"F";590,961337209302;6880
5;21;2;"F";850,461773700306;654
5;21;3;"F";913,634779903562;6429
5;21;4;"F";663,37287647567;3473
5;21;5;"F";308,982898674647;2339
5;22;1;"F";693,623508435057;7291
5;22;2;"F";953,452488687783;663
5;22;3;"F";1046,96031981048;6754
5;22;4;"F";958,168665067946;3753
5;22;5;"F";399,032567849687;2395
5;23;1;"F";820,182501467998;8515
5;23;2;"F";1018,38151041667;768
5;23;3;"F";1145,77982233503;7880
5;23;4;"F";1211,79808121374;4482
5;23;5;"F";587,66782729805;2872
5;24;1;"F";958,872475476053;8665
5;24;2;"F";1074,20822622108;778
5;24;3;"F";1213,33978984682;7899
5;24;4;"F";1381,19655698409;4589
5;24;5;"F";865,82012704781;2991
5;25;1;"F";1076,61319966583;9576
5;25;2;"F";1065,22671156004;891
5;25;3;"F";1267,45191653436;8818
5;25;4;"F";1481,12272291467;5215
5;25;5;"F";1100,95206275421;3442
5;26;1;"F";1159,79708195364;9664
5;26;2;"F";1078,03395784543;854
5;26;3;"F";1273,21871063781;8733
5;26;4;"F";1527,82407407407;5184
5;26;5;"F";1260,64170040486;3458
5;27;1;"F";1212,21120062118;10303
5;27;2;"F";1136,78645833333;960
5;27;3;"F";1288,51501968096;9654
5;27;4;"F";1525,45505129543;5751
5;27;5;"F";1371,78977871444;3796
5;28;1;"F";1233,0791538724;8793
5;28;2;"F";1127,9651416122;918
5;28;3;"F";1289,89218909421;8821
5;28;4;"F";1524,29795299469;5276
5;28;5;"F";1403,32060217452;3587
5;29;1;"F";1253,17060402685;7450
5;29;2;"F";1143,69987995198;833
5;29;3;"F";1297,36959837316;7868
5;29;4;"F";1505,02883603452;4751
5;29;5;"F";1412,16325263811;3222
5;30;1;"F";1254,04058255605;6111
5;30;2;"F";1161,11716621253;734
5;30;3;"F";1294,98134642356;7130
5;30;4;"F";1512,88990384615;4160
5;30;5;"F";1433,54230769231;2860
5;31;1;"F";1234,97172182656;4774
5;31;2;"F";1206,36131934033;667
5;31;3;"F";1309,30140709946;6254
5;31;4;"F";1517,05365168539;3560
5;31;5;"F";1437,47703180212;2547
5;32;1;"F";1251,33797433797;3663
5;32;2;"F";1221,38160136286;587
5;32;3;"F";1328,9605734767;5301
5;32;4;"F";1502,18136272545;2994
5;32;5;"F";1429,92640692641;2079
5;33;1;"F";1272,6497829233;2764
5;33;2;"F";1216,75757575758;495
5;33;3;"F";1370,66590857403;4397
5;33;4;"F";1507,71416938111;2456
5;33;5;"F";1455,42630651791;1703
5;34;1;"F";1264,58147773279;1976
5;34;2;"F";1297,55927835052;388
5;34;3;"F";1390,66378281623;3352
5;34;4;"F";1533,90413943355;1836
5;34;5;"F";1476,29600626468;1277
5;35;1;"F";1219,17760617761;1295
5;35;2;"F";1387,1637630662;287
5;35;3;"F";1430,5249343832;2286
5;35;4;"F";1526,17312252964;1265
5;35;5;"F";1474,10285714286;875
5;36;1;"F";1191,21661721068;674
5;36;2;"F";1515,60256410256;156
5;36;3;"F";1471,57783018868;1272
5;36;4;"F";1551,29985007496;667
5;36;5;"F";1454,24696356275;494
6;15;1;"F";344,426751592357;157
6;15;3;"F";449,060606060606;33
6;16;1;"F";487,466561762392;1271
6;16;2;"F";418,675675675676;37
6;16;3;"F";598,277955271565;313
6;16;4;"F";273,25;20
6;17;1;"F";443,169907202828;4526
6;17;2;"F";418,252032520325;123
6;17;3;"F";737,228421052632;950
6;17;4;"F";200,720430107527;186
6;17;5;"F";115,3875;80
6;18;1;"F";331,705733558179;9488
6;18;2;"F";409,5625;256
6;18;3;"F";546,535887749595;1853
6;18;4;"F";202,427734375;512
6;18;5;"F";159,103773584906;212
6;19;1;"F";379,095585900286;15745
6;19;2;"F";511,23544973545;378
6;19;3;"F";583,039533376539;3086
6;19;4;"F";356,787526427061;946
6;19;5;"F";252,92619047619;420
6;20;1;"F";491,109518869148;15422
6;20;2;"F";625,648514851485;404
6;20;3;"F";742,554213402358;3477
6;20;4;"F";515,911607142857;1120
6;20;5;"F";364,805907172996;474
6;21;1;"F";615,764762044653;13616
6;21;2;"F";787,296103896104;385
6;21;3;"F";911,30304772858;3478
6;21;4;"F";804,733660130719;1224
6;21;5;"F";464,645098039216;510
6;22;1;"F";769,915487945912;11241
6;22;2;"F";884,202857142857;350
6;22;3;"F";1038,92950717405;3206
6;22;4;"F";1133,02545155993;1218
6;22;5;"F";630,446601941748;515
6;23;1;"F";916,924394366197;8875
6;23;2;"F";965,439189189189;296
6;23;3;"F";1120,22822609314;2813
6;23;4;"F";1320,17737789203;1167
6;23;5;"F";866,696153846154;520
6;24;1;"F";1046,45974928259;6621
6;24;2;"F";1006,47391304348;230
6;24;3;"F";1195,35987404408;2223
6;24;4;"F";1439,84455445545;1010
6;24;5;"F";1127,3367983368;481
6;25;1;"F";1148,13611442193;4195
6;25;2;"F";961,5;166
6;25;3;"F";1228,30415335463;1565
6;25;4;"F";1483,09511228534;757
6;25;5;"F";1289,70053475936;374
6;26;1;"F";1224,77889182058;1895
6;26;2;"F";1051,70526315789;95
6;26;3;"F";1292,14430379747;790
6;26;4;"F";1548,58133971292;418
6;26;5;"F";1408,90867579909;219
